<?xml version="1.0" encoding="utf-8"?>
<!DOCTYPE eagle SYSTEM "eagle.dtd">
<eagle version="9.6.0">
<drawing>
<settings>
<setting alwaysvectorfont="no"/>
<setting verticaltext="up"/>
</settings>
<grid distance="0.025" unitdist="inch" unit="inch" style="lines" multiple="1" display="yes" altdistance="5" altunitdist="mil" altunit="inch"/>
<layers>
<layer number="1" name="Top" color="4" fill="1" visible="yes" active="yes"/>
<layer number="16" name="Bottom" color="1" fill="1" visible="yes" active="yes"/>
<layer number="17" name="Pads" color="2" fill="1" visible="yes" active="yes"/>
<layer number="18" name="Vias" color="2" fill="1" visible="yes" active="yes"/>
<layer number="19" name="Unrouted" color="6" fill="1" visible="yes" active="yes"/>
<layer number="20" name="Dimension" color="24" fill="1" visible="yes" active="yes"/>
<layer number="21" name="tPlace" color="7" fill="1" visible="yes" active="yes"/>
<layer number="22" name="bPlace" color="7" fill="1" visible="yes" active="yes"/>
<layer number="23" name="tOrigins" color="15" fill="1" visible="yes" active="yes"/>
<layer number="24" name="bOrigins" color="15" fill="1" visible="yes" active="yes"/>
<layer number="25" name="tNames" color="7" fill="1" visible="yes" active="yes"/>
<layer number="26" name="bNames" color="7" fill="1" visible="yes" active="yes"/>
<layer number="27" name="tValues" color="7" fill="1" visible="no" active="yes"/>
<layer number="28" name="bValues" color="7" fill="1" visible="no" active="yes"/>
<layer number="29" name="tStop" color="7" fill="3" visible="no" active="yes"/>
<layer number="30" name="bStop" color="7" fill="6" visible="no" active="yes"/>
<layer number="31" name="tCream" color="7" fill="4" visible="no" active="yes"/>
<layer number="32" name="bCream" color="7" fill="5" visible="no" active="yes"/>
<layer number="33" name="tFinish" color="6" fill="3" visible="no" active="yes"/>
<layer number="34" name="bFinish" color="6" fill="6" visible="no" active="yes"/>
<layer number="35" name="tGlue" color="7" fill="4" visible="no" active="yes"/>
<layer number="36" name="bGlue" color="7" fill="5" visible="no" active="yes"/>
<layer number="37" name="tTest" color="7" fill="1" visible="no" active="yes"/>
<layer number="38" name="bTest" color="7" fill="1" visible="no" active="yes"/>
<layer number="39" name="tKeepout" color="4" fill="11" visible="yes" active="yes"/>
<layer number="40" name="bKeepout" color="1" fill="11" visible="yes" active="yes"/>
<layer number="41" name="tRestrict" color="4" fill="10" visible="yes" active="yes"/>
<layer number="42" name="bRestrict" color="1" fill="10" visible="yes" active="yes"/>
<layer number="43" name="vRestrict" color="2" fill="10" visible="no" active="yes"/>
<layer number="44" name="Drills" color="7" fill="1" visible="no" active="yes"/>
<layer number="45" name="Holes" color="7" fill="1" visible="no" active="yes"/>
<layer number="46" name="Milling" color="3" fill="1" visible="no" active="yes"/>
<layer number="47" name="Measures" color="7" fill="1" visible="no" active="yes"/>
<layer number="48" name="Document" color="7" fill="1" visible="no" active="yes"/>
<layer number="49" name="Reference" color="7" fill="1" visible="no" active="yes"/>
<layer number="51" name="tDocu" color="7" fill="1" visible="yes" active="yes"/>
<layer number="52" name="bDocu" color="7" fill="1" visible="yes" active="yes"/>
<layer number="88" name="SimResults" color="9" fill="1" visible="no" active="no"/>
<layer number="89" name="SimProbes" color="9" fill="1" visible="no" active="no"/>
<layer number="90" name="Modules" color="5" fill="1" visible="no" active="no"/>
<layer number="91" name="Nets" color="2" fill="1" visible="no" active="no"/>
<layer number="92" name="Busses" color="1" fill="1" visible="no" active="no"/>
<layer number="93" name="Pins" color="2" fill="1" visible="no" active="no"/>
<layer number="94" name="Symbols" color="4" fill="1" visible="no" active="no"/>
<layer number="95" name="Names" color="7" fill="1" visible="no" active="no"/>
<layer number="96" name="Values" color="7" fill="1" visible="no" active="no"/>
<layer number="97" name="Info" color="7" fill="1" visible="no" active="no"/>
<layer number="98" name="Guide" color="6" fill="1" visible="no" active="no"/>
</layers>
<board>
<plain>
<wire x1="0" y1="0" x2="19.05" y2="0" width="0" layer="20"/>
<wire x1="19.05" y1="0" x2="19.05" y2="49.53" width="0" layer="20"/>
<wire x1="19.05" y1="49.53" x2="0" y2="49.53" width="0" layer="20"/>
<wire x1="0" y1="49.53" x2="0" y2="0" width="0" layer="20"/>
<text x="4.752234375" y="11.697603125" size="0.254" layer="28" rot="MR0">c1</text>
<text x="6.72289375" y="12.353875" size="0.254" layer="28" rot="MR0">c3</text>
<text x="4.752234375" y="4.99535625" size="0.254" layer="28" rot="MR0">c2</text>
<text x="6.72289375" y="4.968184375" size="0.254" layer="28" rot="MR0">c4</text>
<text x="5.759465625" y="9.40533125" size="0.254" layer="25" rot="R90">c1</text>
<text x="13.373990625" y="9.40533125" size="0.254" layer="25" rot="R90">c2</text>
<text x="5.759465625" y="12.2637875" size="0.254" layer="25" rot="R90">c3</text>
<text x="13.373990625" y="12.2637875" size="0.254" layer="25" rot="R90">c4</text>
<text x="14.55251875" y="11.0537375" size="0.254" layer="25" rot="R270">Cbypass</text>
<text x="17.8" y="2.27" size="0.254" layer="22" rot="MR0">Capital Sciences 2020</text>
<text x="17.8" y="1.77" size="0.254" layer="22" rot="MR0">RS232-TTL Rev2</text>
<text x="7.54" y="19.5" size="0.254" layer="21">♪┏(・o･)┛♪┗ ( ･o･) ┓♪</text>
</plain>
<libraries>
<library name="rcl" urn="urn:adsk.eagle:library:334">
<description>&lt;b&gt;Resistors, Capacitors, Inductors&lt;/b&gt;&lt;p&gt;
Based on the previous libraries:
&lt;ul&gt;
&lt;li&gt;r.lbr
&lt;li&gt;cap.lbr 
&lt;li&gt;cap-fe.lbr
&lt;li&gt;captant.lbr
&lt;li&gt;polcap.lbr
&lt;li&gt;ipc-smd.lbr
&lt;/ul&gt;
All SMD packages are defined according to the IPC specifications and  CECC&lt;p&gt;
&lt;author&gt;Created by librarian@cadsoft.de&lt;/author&gt;&lt;p&gt;
&lt;p&gt;
for Electrolyt Capacitors see also :&lt;p&gt;
www.bccomponents.com &lt;p&gt;
www.panasonic.com&lt;p&gt;
www.kemet.com&lt;p&gt;
http://www.secc.co.jp/pdf/os_e/2004/e_os_all.pdf &lt;b&gt;(SANYO)&lt;/b&gt;
&lt;p&gt;
for trimmer refence see : &lt;u&gt;www.electrospec-inc.com/cross_references/trimpotcrossref.asp&lt;/u&gt;&lt;p&gt;

&lt;table border=0 cellspacing=0 cellpadding=0 width="100%" cellpaddding=0&gt;
&lt;tr valign="top"&gt;

&lt;! &lt;td width="10"&gt;&amp;nbsp;&lt;/td&gt;
&lt;td width="90%"&gt;

&lt;b&gt;&lt;font color="#0000FF" size="4"&gt;TRIM-POT CROSS REFERENCE&lt;/font&gt;&lt;/b&gt;
&lt;P&gt;
&lt;TABLE BORDER=0 CELLSPACING=1 CELLPADDING=2&gt;
  &lt;TR&gt;
    &lt;TD COLSPAN=8&gt;
      &lt;FONT SIZE=3 FACE=ARIAL&gt;&lt;B&gt;RECTANGULAR MULTI-TURN&lt;/B&gt;&lt;/FONT&gt;
    &lt;/TD&gt;
  &lt;/TR&gt;
  &lt;TR&gt;
    &lt;TD ALIGN=CENTER&gt;
      &lt;B&gt;
      &lt;FONT SIZE=3 FACE=ARIAL color="#FF0000"&gt;BOURNS&lt;/FONT&gt;
      &lt;/B&gt;
    &lt;/TD&gt;
    &lt;TD ALIGN=CENTER&gt;
      &lt;B&gt;
      &lt;FONT SIZE=3 FACE=ARIAL color="#FF0000"&gt;BI&amp;nbsp;TECH&lt;/FONT&gt;
      &lt;/B&gt;
    &lt;/TD&gt;
    &lt;TD ALIGN=CENTER&gt;
      &lt;B&gt;
      &lt;FONT SIZE=3 FACE=ARIAL color="#FF0000"&gt;DALE-VISHAY&lt;/FONT&gt;
      &lt;/B&gt;
    &lt;/TD&gt;
    &lt;TD ALIGN=CENTER&gt;
      &lt;B&gt;
      &lt;FONT SIZE=3 FACE=ARIAL color="#FF0000"&gt;PHILIPS/MEPCO&lt;/FONT&gt;
      &lt;/B&gt;
    &lt;/TD&gt;
    &lt;TD ALIGN=CENTER&gt;
      &lt;B&gt;
      &lt;FONT SIZE=3 FACE=ARIAL color="#FF0000"&gt;MURATA&lt;/FONT&gt;
      &lt;/B&gt;
    &lt;/TD&gt;
    &lt;TD ALIGN=CENTER&gt;
      &lt;B&gt;
      &lt;FONT SIZE=3 FACE=ARIAL color="#FF0000"&gt;PANASONIC&lt;/FONT&gt;
      &lt;/B&gt;
    &lt;/TD&gt;
    &lt;TD ALIGN=CENTER&gt;
      &lt;B&gt;
      &lt;FONT SIZE=3 FACE=ARIAL color="#FF0000"&gt;SPECTROL&lt;/FONT&gt;
      &lt;/B&gt;
    &lt;/TD&gt;
    &lt;TD ALIGN=CENTER&gt;
      &lt;B&gt;
      &lt;FONT SIZE=3 FACE=ARIAL color="#FF0000"&gt;MILSPEC&lt;/FONT&gt;
      &lt;/B&gt;
    &lt;/TD&gt;&lt;TD&gt;&amp;nbsp;&lt;/TD&gt;
  &lt;/TR&gt;
  &lt;TR&gt;
    &lt;TD BGCOLOR="#cccccc" ALIGN=CENTER&gt;&lt;FONT FACE=ARIAL SIZE=3 &gt;
      3005P&lt;BR&gt;
      3006P&lt;BR&gt;
      3006W&lt;BR&gt;
      3006Y&lt;BR&gt;
      3009P&lt;BR&gt;
      3009W&lt;BR&gt;
      3009Y&lt;BR&gt;
      3057J&lt;BR&gt;
      3057L&lt;BR&gt;
      3057P&lt;BR&gt;
      3057Y&lt;BR&gt;
      3059J&lt;BR&gt;
      3059L&lt;BR&gt;
      3059P&lt;BR&gt;
      3059Y&lt;BR&gt;&lt;/FONT&gt;
    &lt;/TD&gt;
    &lt;TD BGCOLOR="#cccccc" ALIGN=CENTER&gt;&lt;FONT FACE=ARIAL SIZE=3&gt;
      -&lt;BR&gt;
      89P&lt;BR&gt;
      89W&lt;BR&gt;
      89X&lt;BR&gt;
      89PH&lt;BR&gt;
      76P&lt;BR&gt;
      89XH&lt;BR&gt;
      78SLT&lt;BR&gt;
      78L&amp;nbsp;ALT&lt;BR&gt;
      56P&amp;nbsp;ALT&lt;BR&gt;
      78P&amp;nbsp;ALT&lt;BR&gt;
      T8S&lt;BR&gt;
      78L&lt;BR&gt;
      56P&lt;BR&gt;
      78P&lt;BR&gt;&lt;/FONT&gt;
    &lt;/TD&gt;
    &lt;TD BGCOLOR="#cccccc" ALIGN=CENTER&gt;&lt;FONT FACE=ARIAL SIZE=3&gt;
      -&lt;BR&gt;
      T18/784&lt;BR&gt;
      783&lt;BR&gt;
      781&lt;BR&gt;
      -&lt;BR&gt;
      -&lt;BR&gt;
      -&lt;BR&gt;
      2199&lt;BR&gt;
      1697/1897&lt;BR&gt;
      1680/1880&lt;BR&gt;
      2187&lt;BR&gt;
      -&lt;BR&gt;
      -&lt;BR&gt;
      -&lt;BR&gt;
      -&lt;BR&gt;&lt;/FONT&gt;
    &lt;/TD&gt;
    &lt;TD BGCOLOR="#cccccc" ALIGN=CENTER&gt;&lt;FONT FACE=ARIAL SIZE=3&gt;
      -&lt;BR&gt;
      8035EKP/CT20/RJ-20P&lt;BR&gt;
      -&lt;BR&gt;
      RJ-20X&lt;BR&gt;
      -&lt;BR&gt;
      -&lt;BR&gt;
      -&lt;BR&gt;
      1211L&lt;BR&gt;
      8012EKQ&amp;nbsp;ALT&lt;BR&gt;
      8012EKR&amp;nbsp;ALT&lt;BR&gt;
      1211P&lt;BR&gt;
      8012EKJ&lt;BR&gt;
      8012EKL&lt;BR&gt;
      8012EKQ&lt;BR&gt;
      8012EKR&lt;BR&gt;&lt;/FONT&gt;
    &lt;/TD&gt;
    &lt;TD BGCOLOR="#cccccc" ALIGN=CENTER&gt;&lt;FONT FACE=ARIAL SIZE=3&gt;
      -&lt;BR&gt;
      2101P&lt;BR&gt;
      2101W&lt;BR&gt;
      2101Y&lt;BR&gt;
      -&lt;BR&gt;
      -&lt;BR&gt;
      -&lt;BR&gt;
      -&lt;BR&gt;
      -&lt;BR&gt;
      -&lt;BR&gt;
      -&lt;BR&gt;
      -&lt;BR&gt;
      2102L&lt;BR&gt;
      2102S&lt;BR&gt;
      2102Y&lt;BR&gt;&lt;/FONT&gt;
    &lt;/TD&gt;
    &lt;TD BGCOLOR="#cccccc" ALIGN=CENTER&gt;&lt;FONT FACE=ARIAL SIZE=3&gt;
      -&lt;BR&gt;
      EVMCOG&lt;BR&gt;
      -&lt;BR&gt;
      -&lt;BR&gt;
      -&lt;BR&gt;
      -&lt;BR&gt;
      -&lt;BR&gt;
      -&lt;BR&gt;
      -&lt;BR&gt;
      -&lt;BR&gt;
      -&lt;BR&gt;
      -&lt;BR&gt;
      -&lt;BR&gt;
      -&lt;BR&gt;
      -&lt;BR&gt;&lt;/FONT&gt;
    &lt;/TD&gt;
    &lt;TD BGCOLOR="#cccccc" ALIGN=CENTER&gt;&lt;FONT FACE=ARIAL SIZE=3&gt;
      -&lt;BR&gt;
      43P&lt;BR&gt;
      43W&lt;BR&gt;
      43Y&lt;BR&gt;
      -&lt;BR&gt;
      -&lt;BR&gt;
      -&lt;BR&gt;
      -&lt;BR&gt;
      40L&lt;BR&gt;
      40P&lt;BR&gt;
      40Y&lt;BR&gt;
      70Y-T602&lt;BR&gt;
      70L&lt;BR&gt;
      70P&lt;BR&gt;
      70Y&lt;BR&gt;&lt;/FONT&gt;
    &lt;/TD&gt;
    &lt;TD BGCOLOR="#cccccc" ALIGN=CENTER&gt;&lt;FONT FACE=ARIAL SIZE=3&gt;
      -&lt;BR&gt;
      -&lt;BR&gt;
      -&lt;BR&gt;
      -&lt;BR&gt;
      -&lt;BR&gt;
      -&lt;BR&gt;
      -&lt;BR&gt;
      -&lt;BR&gt;
      RT/RTR12&lt;BR&gt;
      RT/RTR12&lt;BR&gt;
      RT/RTR12&lt;BR&gt;
      -&lt;BR&gt;
      RJ/RJR12&lt;BR&gt;
      RJ/RJR12&lt;BR&gt;
      RJ/RJR12&lt;BR&gt;&lt;/FONT&gt;
    &lt;/TD&gt;
  &lt;/TR&gt;
  &lt;TR&gt;
    &lt;TD COLSPAN=8&gt;&amp;nbsp;
    &lt;/TD&gt;
  &lt;/TR&gt;
  &lt;TR&gt;
    &lt;TD COLSPAN=8&gt;
      &lt;FONT SIZE=4 FACE=ARIAL&gt;&lt;B&gt;SQUARE MULTI-TURN&lt;/B&gt;&lt;/FONT&gt;
    &lt;/TD&gt;
  &lt;/TR&gt;
  &lt;TR&gt;
   &lt;TD ALIGN=CENTER&gt;
      &lt;FONT SIZE=3 FACE=ARIAL&gt;&lt;B&gt;BOURN&lt;/B&gt;&lt;/FONT&gt;
    &lt;/TD&gt;
    &lt;TD ALIGN=CENTER&gt;
      &lt;FONT SIZE=3 FACE=ARIAL&gt;&lt;B&gt;BI&amp;nbsp;TECH&lt;/B&gt;&lt;/FONT&gt;
    &lt;/TD&gt;
    &lt;TD ALIGN=CENTER&gt;
      &lt;FONT SIZE=3 FACE=ARIAL&gt;&lt;B&gt;DALE-VISHAY&lt;/B&gt;&lt;/FONT&gt;
    &lt;/TD&gt;
    &lt;TD ALIGN=CENTER&gt;
      &lt;FONT SIZE=3 FACE=ARIAL&gt;&lt;B&gt;PHILIPS/MEPCO&lt;/B&gt;&lt;/FONT&gt;
    &lt;/TD&gt;
    &lt;TD ALIGN=CENTER&gt;
      &lt;FONT SIZE=3 FACE=ARIAL&gt;&lt;B&gt;MURATA&lt;/B&gt;&lt;/FONT&gt;
    &lt;/TD&gt;
    &lt;TD ALIGN=CENTER&gt;
      &lt;FONT SIZE=3 FACE=ARIAL&gt;&lt;B&gt;PANASONIC&lt;/B&gt;&lt;/FONT&gt;
    &lt;/TD&gt;
    &lt;TD ALIGN=CENTER&gt;
      &lt;FONT SIZE=3 FACE=ARIAL&gt;&lt;B&gt;SPECTROL&lt;/B&gt;&lt;/FONT&gt;
    &lt;/TD&gt;
    &lt;TD ALIGN=CENTER&gt;
      &lt;FONT SIZE=3 FACE=ARIAL&gt;&lt;B&gt;MILSPEC&lt;/B&gt;&lt;/FONT&gt;
    &lt;/TD&gt;
  &lt;/TR&gt;
  &lt;TR&gt;
    &lt;TD BGCOLOR="#cccccc" ALIGN=CENTER&gt;&lt;FONT FACE=ARIAL SIZE=3&gt;
      3250L&lt;BR&gt;
      3250P&lt;BR&gt;
      3250W&lt;BR&gt;
      3250X&lt;BR&gt;
      3252P&lt;BR&gt;
      3252W&lt;BR&gt;
      3252X&lt;BR&gt;
      3260P&lt;BR&gt;
      3260W&lt;BR&gt;
      3260X&lt;BR&gt;
      3262P&lt;BR&gt;
      3262W&lt;BR&gt;
      3262X&lt;BR&gt;
      3266P&lt;BR&gt;
      3266W&lt;BR&gt;
      3266X&lt;BR&gt;
      3290H&lt;BR&gt;
      3290P&lt;BR&gt;
      3290W&lt;BR&gt;
      3292P&lt;BR&gt;
      3292W&lt;BR&gt;
      3292X&lt;BR&gt;
      3296P&lt;BR&gt;
      3296W&lt;BR&gt;
      3296X&lt;BR&gt;
      3296Y&lt;BR&gt;
      3296Z&lt;BR&gt;
      3299P&lt;BR&gt;
      3299W&lt;BR&gt;
      3299X&lt;BR&gt;
      3299Y&lt;BR&gt;
      3299Z&lt;BR&gt;&lt;/FONT&gt;
    &lt;/TD&gt;
    &lt;TD BGCOLOR="#cccccc" ALIGN=CENTER&gt;&lt;FONT FACE=ARIAL SIZE=3&gt;
      -&lt;BR&gt;
      66P&amp;nbsp;ALT&lt;BR&gt;
      66W&amp;nbsp;ALT&lt;BR&gt;
      66X&amp;nbsp;ALT&lt;BR&gt;
      66P&amp;nbsp;ALT&lt;BR&gt;
      66W&amp;nbsp;ALT&lt;BR&gt;
      66X&amp;nbsp;ALT&lt;BR&gt;
      -&lt;BR&gt;
      64W&amp;nbsp;ALT&lt;BR&gt;
      -&lt;BR&gt;
      64P&amp;nbsp;ALT&lt;BR&gt;
      64W&amp;nbsp;ALT&lt;BR&gt;
      64X&amp;nbsp;ALT&lt;BR&gt;
      64P&lt;BR&gt;
      64W&lt;BR&gt;
      64X&lt;BR&gt;
      66X&amp;nbsp;ALT&lt;BR&gt;
      66P&amp;nbsp;ALT&lt;BR&gt;
      66W&amp;nbsp;ALT&lt;BR&gt;
      66P&lt;BR&gt;
      66W&lt;BR&gt;
      66X&lt;BR&gt;
      67P&lt;BR&gt;
      67W&lt;BR&gt;
      67X&lt;BR&gt;
      67Y&lt;BR&gt;
      67Z&lt;BR&gt;
      68P&lt;BR&gt;
      68W&lt;BR&gt;
      68X&lt;BR&gt;
      67Y&amp;nbsp;ALT&lt;BR&gt;
      67Z&amp;nbsp;ALT&lt;BR&gt;&lt;/FONT&gt;
    &lt;/TD&gt;
    &lt;TD BGCOLOR="#cccccc" ALIGN=CENTER&gt;&lt;FONT FACE=ARIAL SIZE=3&gt;
      5050&lt;BR&gt;
      5091&lt;BR&gt;
      5080&lt;BR&gt;
      5087&lt;BR&gt;
      -&lt;BR&gt;
      -&lt;BR&gt;
      -&lt;BR&gt;
      -&lt;BR&gt;
      -&lt;BR&gt;
      -&lt;BR&gt;
      -&lt;BR&gt;
      T63YB&lt;BR&gt;
      T63XB&lt;BR&gt;
      -&lt;BR&gt;
      -&lt;BR&gt;
      -&lt;BR&gt;
      5887&lt;BR&gt;
      5891&lt;BR&gt;
      5880&lt;BR&gt;
      -&lt;BR&gt;
      -&lt;BR&gt;
      -&lt;BR&gt;
      T93Z&lt;BR&gt;
      T93YA&lt;BR&gt;
      T93XA&lt;BR&gt;
      T93YB&lt;BR&gt;
      T93XB&lt;BR&gt;
      -&lt;BR&gt;
      -&lt;BR&gt;
      -&lt;BR&gt;
      -&lt;BR&gt;
      -&lt;BR&gt;&lt;/FONT&gt;
    &lt;/TD&gt;
    &lt;TD BGCOLOR="#cccccc" ALIGN=CENTER&gt;&lt;FONT FACE=ARIAL SIZE=3&gt;
      -&lt;BR&gt;
      -&lt;BR&gt;
      -&lt;BR&gt;
      -&lt;BR&gt;
      -&lt;BR&gt;
      -&lt;BR&gt;
      -&lt;BR&gt;
      -&lt;BR&gt;
      -&lt;BR&gt;
      -&lt;BR&gt;
      8026EKP&lt;BR&gt;
      8026EKW&lt;BR&gt;
      8026EKM&lt;BR&gt;
      8026EKP&lt;BR&gt;
      8026EKB&lt;BR&gt;
      8026EKM&lt;BR&gt;
      1309X&lt;BR&gt;
      1309P&lt;BR&gt;
      1309W&lt;BR&gt;
      8024EKP&lt;BR&gt;
      8024EKW&lt;BR&gt;
      8024EKN&lt;BR&gt;
      RJ-9P/CT9P&lt;BR&gt;
      RJ-9W&lt;BR&gt;
      RJ-9X&lt;BR&gt;
      -&lt;BR&gt;
      -&lt;BR&gt;
      -&lt;BR&gt;
      -&lt;BR&gt;
      -&lt;BR&gt;
      -&lt;BR&gt;
      -&lt;BR&gt;&lt;/FONT&gt;
    &lt;/TD&gt;
    &lt;TD BGCOLOR="#cccccc" ALIGN=CENTER&gt;&lt;FONT FACE=ARIAL SIZE=3&gt;
      -&lt;BR&gt;
      -&lt;BR&gt;
      -&lt;BR&gt;
      -&lt;BR&gt;
      -&lt;BR&gt;
      -&lt;BR&gt;
      -&lt;BR&gt;
      -&lt;BR&gt;
      -&lt;BR&gt;
      -&lt;BR&gt;
      3103P&lt;BR&gt;
      3103Y&lt;BR&gt;
      3103Z&lt;BR&gt;
      3103P&lt;BR&gt;
      3103Y&lt;BR&gt;
      3103Z&lt;BR&gt;
      -&lt;BR&gt;
      -&lt;BR&gt;
      -&lt;BR&gt;
      -&lt;BR&gt;
      -&lt;BR&gt;
      -&lt;BR&gt;
      3105P/3106P&lt;BR&gt;
      3105W/3106W&lt;BR&gt;
      3105X/3106X&lt;BR&gt;
      3105Y/3106Y&lt;BR&gt;
      3105Z/3105Z&lt;BR&gt;
      3102P&lt;BR&gt;
      3102W&lt;BR&gt;
      3102X&lt;BR&gt;
      3102Y&lt;BR&gt;
      3102Z&lt;BR&gt;&lt;/FONT&gt;
    &lt;/TD&gt;
    &lt;TD BGCOLOR="#cccccc" ALIGN=CENTER&gt;&lt;FONT FACE=ARIAL SIZE=3&gt;
      -&lt;BR&gt;
      -&lt;BR&gt;
      -&lt;BR&gt;
      -&lt;BR&gt;
      -&lt;BR&gt;
      -&lt;BR&gt;
      -&lt;BR&gt;
      -&lt;BR&gt;
      -&lt;BR&gt;
      -&lt;BR&gt;
      -&lt;BR&gt;
      -&lt;BR&gt;
      -&lt;BR&gt;
      -&lt;BR&gt;
      -&lt;BR&gt;
      -&lt;BR&gt;
      -&lt;BR&gt;
      -&lt;BR&gt;
      -&lt;BR&gt;
      -&lt;BR&gt;
      -&lt;BR&gt;
      -&lt;BR&gt;
      EVMCBG&lt;BR&gt;
      EVMCCG&lt;BR&gt;
      -&lt;BR&gt;
      -&lt;BR&gt;
      -&lt;BR&gt;
      -&lt;BR&gt;
      -&lt;BR&gt;
      -&lt;BR&gt;
      -&lt;BR&gt;
      -&lt;BR&gt;&lt;/FONT&gt;
    &lt;/TD&gt;
    &lt;TD BGCOLOR="#cccccc" ALIGN=CENTER&gt;&lt;FONT FACE=ARIAL SIZE=3&gt;
      55-1-X&lt;BR&gt;
      55-4-X&lt;BR&gt;
      55-3-X&lt;BR&gt;
      55-2-X&lt;BR&gt;
      -&lt;BR&gt;
      -&lt;BR&gt;
      -&lt;BR&gt;
      -&lt;BR&gt;
      -&lt;BR&gt;
      -&lt;BR&gt;
      -&lt;BR&gt;
      -&lt;BR&gt;
      -&lt;BR&gt;
      -&lt;BR&gt;
      -&lt;BR&gt;
      -&lt;BR&gt;
      50-2-X&lt;BR&gt;
      50-4-X&lt;BR&gt;
      50-3-X&lt;BR&gt;
      -&lt;BR&gt;
      -&lt;BR&gt;
      -&lt;BR&gt;
      64P&lt;BR&gt;
      64W&lt;BR&gt;
      64X&lt;BR&gt;
      64Y&lt;BR&gt;
      64Z&lt;BR&gt;
      -&lt;BR&gt;
      -&lt;BR&gt;
      -&lt;BR&gt;
      -&lt;BR&gt;
      -&lt;BR&gt;&lt;/FONT&gt;
    &lt;/TD&gt;
    &lt;TD BGCOLOR="#cccccc" ALIGN=CENTER&gt;&lt;FONT FACE=ARIAL SIZE=3&gt;
      RT/RTR22&lt;BR&gt;
      RT/RTR22&lt;BR&gt;
      RT/RTR22&lt;BR&gt;
      RT/RTR22&lt;BR&gt;
      RJ/RJR22&lt;BR&gt;
      RJ/RJR22&lt;BR&gt;
      RJ/RJR22&lt;BR&gt;
      RT/RTR26&lt;BR&gt;
      RT/RTR26&lt;BR&gt;
      RT/RTR26&lt;BR&gt;
      RJ/RJR26&lt;BR&gt;
      RJ/RJR26&lt;BR&gt;
      RJ/RJR26&lt;BR&gt;
      RJ/RJR26&lt;BR&gt;
      RJ/RJR26&lt;BR&gt;
      RJ/RJR26&lt;BR&gt;
      RT/RTR24&lt;BR&gt;
      RT/RTR24&lt;BR&gt;
      RT/RTR24&lt;BR&gt;
      RJ/RJR24&lt;BR&gt;
      RJ/RJR24&lt;BR&gt;
      RJ/RJR24&lt;BR&gt;
      RJ/RJR24&lt;BR&gt;
      RJ/RJR24&lt;BR&gt;
      RJ/RJR24&lt;BR&gt;
      -&lt;BR&gt;
      -&lt;BR&gt;
      -&lt;BR&gt;
      -&lt;BR&gt;
      -&lt;BR&gt;
      -&lt;BR&gt;
      -&lt;BR&gt;&lt;/FONT&gt;
    &lt;/TD&gt;
  &lt;/TR&gt;
  &lt;TR&gt;
    &lt;TD COLSPAN=8&gt;&amp;nbsp;
    &lt;/TD&gt;
  &lt;/TR&gt;
  &lt;TR&gt;
    &lt;TD COLSPAN=8&gt;
      &lt;FONT SIZE=4 FACE=ARIAL&gt;&lt;B&gt;SINGLE TURN&lt;/B&gt;&lt;/FONT&gt;
    &lt;/TD&gt;
  &lt;/TR&gt;
  &lt;TR&gt;
    &lt;TD ALIGN=CENTER&gt;
      &lt;FONT SIZE=3 FACE=ARIAL&gt;&lt;B&gt;BOURN&lt;/B&gt;&lt;/FONT&gt;
    &lt;/TD&gt;
    &lt;TD ALIGN=CENTER&gt;
      &lt;FONT SIZE=3 FACE=ARIAL&gt;&lt;B&gt;BI&amp;nbsp;TECH&lt;/B&gt;&lt;/FONT&gt;
    &lt;/TD&gt;
    &lt;TD ALIGN=CENTER&gt;
      &lt;FONT SIZE=3 FACE=ARIAL&gt;&lt;B&gt;DALE-VISHAY&lt;/B&gt;&lt;/FONT&gt;
    &lt;/TD&gt;
    &lt;TD ALIGN=CENTER&gt;
      &lt;FONT SIZE=3 FACE=ARIAL&gt;&lt;B&gt;PHILIPS/MEPCO&lt;/B&gt;&lt;/FONT&gt;
    &lt;/TD&gt;
    &lt;TD ALIGN=CENTER&gt;
      &lt;FONT SIZE=3 FACE=ARIAL&gt;&lt;B&gt;MURATA&lt;/B&gt;&lt;/FONT&gt;
    &lt;/TD&gt;
    &lt;TD ALIGN=CENTER&gt;
      &lt;FONT SIZE=3 FACE=ARIAL&gt;&lt;B&gt;PANASONIC&lt;/B&gt;&lt;/FONT&gt;
    &lt;/TD&gt;
    &lt;TD ALIGN=CENTER&gt;
      &lt;FONT SIZE=3 FACE=ARIAL&gt;&lt;B&gt;SPECTROL&lt;/B&gt;&lt;/FONT&gt;
    &lt;/TD&gt;
    &lt;TD ALIGN=CENTER&gt;
      &lt;FONT SIZE=3 FACE=ARIAL&gt;&lt;B&gt;MILSPEC&lt;/B&gt;&lt;/FONT&gt;
    &lt;/TD&gt;
  &lt;/TR&gt;
  &lt;TR&gt;
    &lt;TD BGCOLOR="#cccccc" ALIGN=CENTER&gt;&lt;FONT FACE=ARIAL SIZE=3&gt;
      3323P&lt;BR&gt;
      3323S&lt;BR&gt;
      3323W&lt;BR&gt;
      3329H&lt;BR&gt;
      3329P&lt;BR&gt;
      3329W&lt;BR&gt;
      3339H&lt;BR&gt;
      3339P&lt;BR&gt;
      3339W&lt;BR&gt;
      3352E&lt;BR&gt;
      3352H&lt;BR&gt;
      3352K&lt;BR&gt;
      3352P&lt;BR&gt;
      3352T&lt;BR&gt;
      3352V&lt;BR&gt;
      3352W&lt;BR&gt;
      3362H&lt;BR&gt;
      3362M&lt;BR&gt;
      3362P&lt;BR&gt;
      3362R&lt;BR&gt;
      3362S&lt;BR&gt;
      3362U&lt;BR&gt;
      3362W&lt;BR&gt;
      3362X&lt;BR&gt;
      3386B&lt;BR&gt;
      3386C&lt;BR&gt;
      3386F&lt;BR&gt;
      3386H&lt;BR&gt;
      3386K&lt;BR&gt;
      3386M&lt;BR&gt;
      3386P&lt;BR&gt;
      3386S&lt;BR&gt;
      3386W&lt;BR&gt;
      3386X&lt;BR&gt;&lt;/FONT&gt;
    &lt;/TD&gt;
    &lt;TD BGCOLOR="#cccccc" ALIGN=CENTER&gt;&lt;FONT FACE=ARIAL SIZE=3&gt;
      25P&lt;BR&gt;
      25S&lt;BR&gt;
      25RX&lt;BR&gt;
      82P&lt;BR&gt;
      82M&lt;BR&gt;
      82PA&lt;BR&gt;
      -&lt;BR&gt;
      -&lt;BR&gt;
      -&lt;BR&gt;
      91E&lt;BR&gt;
      91X&lt;BR&gt;
      91T&lt;BR&gt;
      91B&lt;BR&gt;
      91A&lt;BR&gt;
      91V&lt;BR&gt;
      91W&lt;BR&gt;
      25W&lt;BR&gt;
      25V&lt;BR&gt;
      25P&lt;BR&gt;
      -&lt;BR&gt;
      25S&lt;BR&gt;
      25U&lt;BR&gt;
      25RX&lt;BR&gt;
      25X&lt;BR&gt;
      72XW&lt;BR&gt;
      72XL&lt;BR&gt;
      72PM&lt;BR&gt;
      72RX&lt;BR&gt;
      -&lt;BR&gt;
      72PX&lt;BR&gt;
      72P&lt;BR&gt;
      72RXW&lt;BR&gt;
      72RXL&lt;BR&gt;
      72X&lt;BR&gt;&lt;/FONT&gt;
    &lt;/TD&gt;
    &lt;TD BGCOLOR="#cccccc" ALIGN=CENTER&gt;&lt;FONT FACE=ARIAL SIZE=3&gt;
      -&lt;BR&gt;
      -&lt;BR&gt;
      -&lt;BR&gt;
      T7YB&lt;BR&gt;
      T7YA&lt;BR&gt;
      -&lt;BR&gt;
      -&lt;BR&gt;
      -&lt;BR&gt;
      -&lt;BR&gt;
      -&lt;BR&gt;
      -&lt;BR&gt;
      -&lt;BR&gt;
      -&lt;BR&gt;
      -&lt;BR&gt;
      -&lt;BR&gt;
      -&lt;BR&gt;
      -&lt;BR&gt;
      TXD&lt;BR&gt;
      TYA&lt;BR&gt;
      TYP&lt;BR&gt;
      -&lt;BR&gt;
      TYD&lt;BR&gt;
      TX&lt;BR&gt;
      -&lt;BR&gt;
      150SX&lt;BR&gt;
      100SX&lt;BR&gt;
      102T&lt;BR&gt;
      101S&lt;BR&gt;
      190T&lt;BR&gt;
      150TX&lt;BR&gt;
      101&lt;BR&gt;
      -&lt;BR&gt;
      -&lt;BR&gt;
      101SX&lt;BR&gt;&lt;/FONT&gt;
    &lt;/TD&gt;
    &lt;TD BGCOLOR="#cccccc" ALIGN=CENTER&gt;&lt;FONT FACE=ARIAL SIZE=3&gt;
      ET6P&lt;BR&gt;
      ET6S&lt;BR&gt;
      ET6X&lt;BR&gt;
      RJ-6W/8014EMW&lt;BR&gt;
      RJ-6P/8014EMP&lt;BR&gt;
      RJ-6X/8014EMX&lt;BR&gt;
      TM7W&lt;BR&gt;
      TM7P&lt;BR&gt;
      TM7X&lt;BR&gt;
      -&lt;BR&gt;
      8017SMS&lt;BR&gt;
      -&lt;BR&gt;
      8017SMB&lt;BR&gt;
      8017SMA&lt;BR&gt;
      -&lt;BR&gt;
      -&lt;BR&gt;
      CT-6W&lt;BR&gt;
      CT-6H&lt;BR&gt;
      CT-6P&lt;BR&gt;
      CT-6R&lt;BR&gt;
      -&lt;BR&gt;
      CT-6V&lt;BR&gt;
      CT-6X&lt;BR&gt;
      -&lt;BR&gt;
      -&lt;BR&gt;
      8038EKV&lt;BR&gt;
      -&lt;BR&gt;
      8038EKX&lt;BR&gt;
      -&lt;BR&gt;
      -&lt;BR&gt;
      8038EKP&lt;BR&gt;
      8038EKZ&lt;BR&gt;
      8038EKW&lt;BR&gt;
      -&lt;BR&gt;&lt;/FONT&gt;
    &lt;/TD&gt;
    &lt;TD BGCOLOR="#cccccc" ALIGN=CENTER&gt;&lt;FONT FACE=ARIAL SIZE=3&gt;
      -&lt;BR&gt;
      -&lt;BR&gt;
      -&lt;BR&gt;
      3321H&lt;BR&gt;
      3321P&lt;BR&gt;
      3321N&lt;BR&gt;
      1102H&lt;BR&gt;
      1102P&lt;BR&gt;
      1102T&lt;BR&gt;
      RVA0911V304A&lt;BR&gt;
      -&lt;BR&gt;
      RVA0911H413A&lt;BR&gt;
      RVG0707V100A&lt;BR&gt;
      RVA0607V(H)306A&lt;BR&gt;
      RVA1214H213A&lt;BR&gt;
      -&lt;BR&gt;
      -&lt;BR&gt;
      -&lt;BR&gt;
      -&lt;BR&gt;
      -&lt;BR&gt;
      -&lt;BR&gt;
      -&lt;BR&gt;
      -&lt;BR&gt;
      -&lt;BR&gt;
      3104B&lt;BR&gt;
      3104C&lt;BR&gt;
      3104F&lt;BR&gt;
      3104H&lt;BR&gt;
      -&lt;BR&gt;
      3104M&lt;BR&gt;
      3104P&lt;BR&gt;
      3104S&lt;BR&gt;
      3104W&lt;BR&gt;
      3104X&lt;BR&gt;&lt;/FONT&gt;
    &lt;/TD&gt;
    &lt;TD BGCOLOR="#cccccc" ALIGN=CENTER&gt;&lt;FONT FACE=ARIAL SIZE=3&gt;
      EVMQ0G&lt;BR&gt;
      EVMQIG&lt;BR&gt;
      EVMQ3G&lt;BR&gt;
      EVMS0G&lt;BR&gt;
      EVMQ0G&lt;BR&gt;
      EVMG0G&lt;BR&gt;
      -&lt;BR&gt;
      -&lt;BR&gt;
      -&lt;BR&gt;
      EVMK4GA00B&lt;BR&gt;
      EVM30GA00B&lt;BR&gt;
      EVMK0GA00B&lt;BR&gt;
      EVM38GA00B&lt;BR&gt;
      EVMB6&lt;BR&gt;
      EVLQ0&lt;BR&gt;
      -&lt;BR&gt;
      EVMMSG&lt;BR&gt;
      EVMMBG&lt;BR&gt;
      EVMMAG&lt;BR&gt;
      -&lt;BR&gt;
      -&lt;BR&gt;
      EVMMCS&lt;BR&gt;
      -&lt;BR&gt;
      -&lt;BR&gt;
      -&lt;BR&gt;
      -&lt;BR&gt;
      -&lt;BR&gt;
      EVMM1&lt;BR&gt;
      -&lt;BR&gt;
      -&lt;BR&gt;
      EVMM0&lt;BR&gt;
      -&lt;BR&gt;
      -&lt;BR&gt;
      EVMM3&lt;BR&gt;&lt;/FONT&gt;
    &lt;/TD&gt;
    &lt;TD BGCOLOR="#cccccc" ALIGN=CENTER&gt;&lt;FONT FACE=ARIAL SIZE=3&gt;
      -&lt;BR&gt;
      -&lt;BR&gt;
      -&lt;BR&gt;
      62-3-1&lt;BR&gt;
      62-1-2&lt;BR&gt;
      -&lt;BR&gt;
      -&lt;BR&gt;
      -&lt;BR&gt;
      -&lt;BR&gt;
      -&lt;BR&gt;
      -&lt;BR&gt;
      -&lt;BR&gt;
      -&lt;BR&gt;
      -&lt;BR&gt;
      -&lt;BR&gt;
      -&lt;BR&gt;
      67R&lt;BR&gt;
      -&lt;BR&gt;
      67P&lt;BR&gt;
      -&lt;BR&gt;
      -&lt;BR&gt;
      -&lt;BR&gt;
      -&lt;BR&gt;
      67X&lt;BR&gt;
      63V&lt;BR&gt;
      63S&lt;BR&gt;
      63M&lt;BR&gt;
      -&lt;BR&gt;
      -&lt;BR&gt;
      63H&lt;BR&gt;
      63P&lt;BR&gt;
      -&lt;BR&gt;
      -&lt;BR&gt;
      63X&lt;BR&gt;&lt;/FONT&gt;
    &lt;/TD&gt;
    &lt;TD BGCOLOR="#cccccc" ALIGN=CENTER&gt;&lt;FONT FACE=ARIAL SIZE=3&gt;
      -&lt;BR&gt;
      -&lt;BR&gt;
      -&lt;BR&gt;
      RJ/RJR50&lt;BR&gt;
      RJ/RJR50&lt;BR&gt;
      RJ/RJR50&lt;BR&gt;
      -&lt;BR&gt;
      -&lt;BR&gt;
      -&lt;BR&gt;
      -&lt;BR&gt;
      -&lt;BR&gt;
      -&lt;BR&gt;
      -&lt;BR&gt;
      -&lt;BR&gt;
      -&lt;BR&gt;
      -&lt;BR&gt;
      -&lt;BR&gt;
      -&lt;BR&gt;
      -&lt;BR&gt;
      -&lt;BR&gt;
      -&lt;BR&gt;
      -&lt;BR&gt;
      -&lt;BR&gt;
      -&lt;BR&gt;
      -&lt;BR&gt;
      -&lt;BR&gt;
      -&lt;BR&gt;
      -&lt;BR&gt;
      -&lt;BR&gt;
      -&lt;BR&gt;
      -&lt;BR&gt;
      -&lt;BR&gt;
      -&lt;BR&gt;
      -&lt;BR&gt;&lt;/FONT&gt;
    &lt;/TD&gt;
  &lt;/TR&gt;
&lt;/TABLE&gt;
&lt;P&gt;&amp;nbsp;&lt;P&gt;
&lt;TABLE BORDER=0 CELLSPACING=1 CELLPADDING=3&gt;
  &lt;TR&gt;
    &lt;TD COLSPAN=7&gt;
      &lt;FONT color="#0000FF" SIZE=4 FACE=ARIAL&gt;&lt;B&gt;SMD TRIM-POT CROSS REFERENCE&lt;/B&gt;&lt;/FONT&gt;
      &lt;P&gt;
      &lt;FONT SIZE=4 FACE=ARIAL&gt;&lt;B&gt;MULTI-TURN&lt;/B&gt;&lt;/FONT&gt;
    &lt;/TD&gt;
  &lt;/TR&gt;
  &lt;TR&gt;
    &lt;TD&gt;
      &lt;FONT SIZE=3 FACE=ARIAL&gt;&lt;B&gt;BOURNS&lt;/B&gt;&lt;/FONT&gt;
    &lt;/TD&gt;
    &lt;TD&gt;
      &lt;FONT SIZE=3 FACE=ARIAL&gt;&lt;B&gt;BI&amp;nbsp;TECH&lt;/B&gt;&lt;/FONT&gt;
    &lt;/TD&gt;
    &lt;TD&gt;
      &lt;FONT SIZE=3 FACE=ARIAL&gt;&lt;B&gt;DALE-VISHAY&lt;/B&gt;&lt;/FONT&gt;
    &lt;/TD&gt;
    &lt;TD&gt;
      &lt;FONT SIZE=3 FACE=ARIAL&gt;&lt;B&gt;PHILIPS/MEPCO&lt;/B&gt;&lt;/FONT&gt;
    &lt;/TD&gt;
    &lt;TD&gt;
      &lt;FONT SIZE=3 FACE=ARIAL&gt;&lt;B&gt;PANASONIC&lt;/B&gt;&lt;/FONT&gt;
    &lt;/TD&gt;
    &lt;TD&gt;
      &lt;FONT SIZE=3 FACE=ARIAL&gt;&lt;B&gt;TOCOS&lt;/B&gt;&lt;/FONT&gt;
    &lt;/TD&gt;
    &lt;TD&gt;
      &lt;FONT SIZE=3 FACE=ARIAL&gt;&lt;B&gt;AUX/KYOCERA&lt;/B&gt;&lt;/FONT&gt;
    &lt;/TD&gt;
  &lt;/TR&gt;
  &lt;TR&gt;
    &lt;TD BGCOLOR="#cccccc" ALIGN=CENTER&gt;&lt;FONT FACE=ARIAL SIZE=3&gt;
      3224G&lt;BR&gt;
      3224J&lt;BR&gt;
      3224W&lt;BR&gt;
      3269P&lt;BR&gt;
      3269W&lt;BR&gt;
      3269X&lt;BR&gt;&lt;/FONT&gt;
    &lt;/TD&gt;
    &lt;TD BGCOLOR="#cccccc" ALIGN=CENTER&gt;&lt;FONT FACE=ARIAL SIZE=3&gt;
      44G&lt;BR&gt;
      44J&lt;BR&gt;
      44W&lt;BR&gt;
      84P&lt;BR&gt;
      84W&lt;BR&gt;
      84X&lt;BR&gt;&lt;/FONT&gt;
    &lt;/TD&gt;
    &lt;TD BGCOLOR="#cccccc" ALIGN=CENTER&gt;&lt;FONT FACE=ARIAL SIZE=3&gt;
      -&lt;BR&gt;
      -&lt;BR&gt;
      -&lt;BR&gt;
      ST63Z&lt;BR&gt;
      ST63Y&lt;BR&gt;
      -&lt;BR&gt;&lt;/FONT&gt;
    &lt;/TD&gt;
    &lt;TD BGCOLOR="#cccccc" ALIGN=CENTER&gt;&lt;FONT FACE=ARIAL SIZE=3&gt;
      -&lt;BR&gt;
      -&lt;BR&gt;
      -&lt;BR&gt;
      ST5P&lt;BR&gt;
      ST5W&lt;BR&gt;
      ST5X&lt;BR&gt;&lt;/FONT&gt;
    &lt;/TD&gt;
    &lt;TD BGCOLOR="#cccccc" ALIGN=CENTER&gt;&lt;FONT FACE=ARIAL SIZE=3&gt;
      -&lt;BR&gt;
      -&lt;BR&gt;
      -&lt;BR&gt;
      -&lt;BR&gt;
      -&lt;BR&gt;
      -&lt;BR&gt;&lt;/FONT&gt;
    &lt;/TD&gt;
    &lt;TD BGCOLOR="#cccccc" ALIGN=CENTER&gt;&lt;FONT FACE=ARIAL SIZE=3&gt;
      -&lt;BR&gt;
      -&lt;BR&gt;
      -&lt;BR&gt;
      -&lt;BR&gt;
      -&lt;BR&gt;
      -&lt;BR&gt;&lt;/FONT&gt;
    &lt;/TD&gt;
    &lt;TD BGCOLOR="#cccccc" ALIGN=CENTER&gt;&lt;FONT FACE=ARIAL SIZE=3&gt;
      -&lt;BR&gt;
      -&lt;BR&gt;
      -&lt;BR&gt;
      -&lt;BR&gt;
      -&lt;BR&gt;
      -&lt;BR&gt;&lt;/FONT&gt;
    &lt;/TD&gt;
  &lt;/TR&gt;
  &lt;TR&gt;
    &lt;TD COLSPAN=7&gt;&amp;nbsp;
    &lt;/TD&gt;
  &lt;/TR&gt;
  &lt;TR&gt;
    &lt;TD COLSPAN=7&gt;
      &lt;FONT SIZE=4 FACE=ARIAL&gt;&lt;B&gt;SINGLE TURN&lt;/B&gt;&lt;/FONT&gt;
    &lt;/TD&gt;
  &lt;/TR&gt;
  &lt;TR&gt;
    &lt;TD&gt;
      &lt;FONT SIZE=3 FACE=ARIAL&gt;&lt;B&gt;BOURNS&lt;/B&gt;&lt;/FONT&gt;
    &lt;/TD&gt;
    &lt;TD&gt;
      &lt;FONT SIZE=3 FACE=ARIAL&gt;&lt;B&gt;BI&amp;nbsp;TECH&lt;/B&gt;&lt;/FONT&gt;
    &lt;/TD&gt;
    &lt;TD&gt;
      &lt;FONT SIZE=3 FACE=ARIAL&gt;&lt;B&gt;DALE-VISHAY&lt;/B&gt;&lt;/FONT&gt;
    &lt;/TD&gt;
    &lt;TD&gt;
      &lt;FONT SIZE=3 FACE=ARIAL&gt;&lt;B&gt;PHILIPS/MEPCO&lt;/B&gt;&lt;/FONT&gt;
    &lt;/TD&gt;
    &lt;TD&gt;
      &lt;FONT SIZE=3 FACE=ARIAL&gt;&lt;B&gt;PANASONIC&lt;/B&gt;&lt;/FONT&gt;
    &lt;/TD&gt;
    &lt;TD&gt;
      &lt;FONT SIZE=3 FACE=ARIAL&gt;&lt;B&gt;TOCOS&lt;/B&gt;&lt;/FONT&gt;
    &lt;/TD&gt;
    &lt;TD&gt;
      &lt;FONT SIZE=3 FACE=ARIAL&gt;&lt;B&gt;AUX/KYOCERA&lt;/B&gt;&lt;/FONT&gt;
    &lt;/TD&gt;
  &lt;/TR&gt;
  &lt;TR&gt;
    &lt;TD BGCOLOR="#cccccc" ALIGN=CENTER&gt;&lt;FONT FACE=ARIAL SIZE=3&gt;
      3314G&lt;BR&gt;
      3314J&lt;BR&gt;
      3364A/B&lt;BR&gt;
      3364C/D&lt;BR&gt;
      3364W/X&lt;BR&gt;
      3313G&lt;BR&gt;
      3313J&lt;BR&gt;&lt;/FONT&gt;
    &lt;/TD&gt;
    &lt;TD BGCOLOR="#cccccc" ALIGN=CENTER&gt;&lt;FONT FACE=ARIAL SIZE=3&gt;
      23B&lt;BR&gt;
      23A&lt;BR&gt;
      21X&lt;BR&gt;
      21W&lt;BR&gt;
      -&lt;BR&gt;
      22B&lt;BR&gt;
      22A&lt;BR&gt;&lt;/FONT&gt;
    &lt;/TD&gt;
    &lt;TD BGCOLOR="#cccccc" ALIGN=CENTER&gt;&lt;FONT FACE=ARIAL SIZE=3&gt;
      ST5YL/ST53YL&lt;BR&gt;
      ST5YJ/5T53YJ&lt;BR&gt;
      ST-23A&lt;BR&gt;
      ST-22B&lt;BR&gt;
      ST-22&lt;BR&gt;
      -&lt;BR&gt;
      -&lt;BR&gt;&lt;/FONT&gt;
    &lt;/TD&gt;
    &lt;TD BGCOLOR="#cccccc" ALIGN=CENTER&gt;&lt;FONT FACE=ARIAL SIZE=3&gt;
      ST-4B&lt;BR&gt;
      ST-4A&lt;BR&gt;
      -&lt;BR&gt;
      -&lt;BR&gt;
      -&lt;BR&gt;
      ST-3B&lt;BR&gt;
      ST-3A&lt;BR&gt;&lt;/FONT&gt;
    &lt;/TD&gt;
    &lt;TD BGCOLOR="#cccccc" ALIGN=CENTER&gt;&lt;FONT FACE=ARIAL SIZE=3&gt;
      -&lt;BR&gt;
      EVM-6YS&lt;BR&gt;
      EVM-1E&lt;BR&gt;
      EVM-1G&lt;BR&gt;
      EVM-1D&lt;BR&gt;
      -&lt;BR&gt;
      -&lt;BR&gt;&lt;/FONT&gt;
    &lt;/TD&gt;
    &lt;TD BGCOLOR="#cccccc" ALIGN=CENTER&gt;&lt;FONT FACE=ARIAL SIZE=3&gt;
      G4B&lt;BR&gt;
      G4A&lt;BR&gt;
      TR04-3S1&lt;BR&gt;
      TRG04-2S1&lt;BR&gt;
      -&lt;BR&gt;
      -&lt;BR&gt;
      -&lt;BR&gt;&lt;/FONT&gt;
    &lt;/TD&gt;
    &lt;TD BGCOLOR="#cccccc" ALIGN=CENTER&gt;&lt;FONT FACE=ARIAL SIZE=3&gt;
      -&lt;BR&gt;
      -&lt;BR&gt;
      DVR-43A&lt;BR&gt;
      CVR-42C&lt;BR&gt;
      CVR-42A/C&lt;BR&gt;
      -&lt;BR&gt;
      -&lt;BR&gt;&lt;/FONT&gt;
    &lt;/TD&gt;
  &lt;/TR&gt;
&lt;/TABLE&gt;
&lt;P&gt;
&lt;FONT SIZE=4 FACE=ARIAL&gt;&lt;B&gt;ALT =&amp;nbsp;ALTERNATE&lt;/B&gt;&lt;/FONT&gt;
&lt;P&gt;

&amp;nbsp;
&lt;P&gt;
&lt;/td&gt;
&lt;/tr&gt;
&lt;/table&gt;</description>
<packages>
<package name="C0603" urn="urn:adsk.eagle:footprint:23123/1" library_version="11">
<description>&lt;b&gt;CAPACITOR&lt;/b&gt;</description>
<wire x1="-1.473" y1="0.983" x2="1.473" y2="0.983" width="0.0508" layer="39"/>
<wire x1="1.473" y1="0.983" x2="1.473" y2="-0.983" width="0.0508" layer="39"/>
<wire x1="1.473" y1="-0.983" x2="-1.473" y2="-0.983" width="0.0508" layer="39"/>
<wire x1="-1.473" y1="-0.983" x2="-1.473" y2="0.983" width="0.0508" layer="39"/>
<wire x1="-0.356" y1="0.432" x2="0.356" y2="0.432" width="0.1016" layer="51"/>
<wire x1="-0.356" y1="-0.419" x2="0.356" y2="-0.419" width="0.1016" layer="51"/>
<smd name="1" x="-0.85" y="0" dx="1.1" dy="1" layer="1"/>
<smd name="2" x="0.85" y="0" dx="1.1" dy="1" layer="1"/>
<text x="-0.635" y="0.635" size="1.27" layer="25">&gt;NAME</text>
<text x="-0.635" y="-1.905" size="1.27" layer="27">&gt;VALUE</text>
<rectangle x1="-0.8382" y1="-0.4699" x2="-0.3381" y2="0.4801" layer="51"/>
<rectangle x1="0.3302" y1="-0.4699" x2="0.8303" y2="0.4801" layer="51"/>
<rectangle x1="-0.1999" y1="-0.3" x2="0.1999" y2="0.3" layer="35"/>
</package>
</packages>
<packages3d>
<package3d name="C0603" urn="urn:adsk.eagle:package:23616/2" type="model" library_version="11">
<description>CAPACITOR</description>
<packageinstances>
<packageinstance name="C0603"/>
</packageinstances>
</package3d>
</packages3d>
</library>
<library name="wirepad" urn="urn:adsk.eagle:library:412">
<description>&lt;b&gt;Single Pads&lt;/b&gt;&lt;p&gt;
&lt;author&gt;Created by librarian@cadsoft.de&lt;/author&gt;</description>
<packages>
<package name="1,6/0,9" urn="urn:adsk.eagle:footprint:30812/1" library_version="2">
<description>&lt;b&gt;THROUGH-HOLE PAD&lt;/b&gt;</description>
<wire x1="-0.508" y1="0.762" x2="-0.762" y2="0.762" width="0.1524" layer="21"/>
<wire x1="-0.762" y1="0.762" x2="-0.762" y2="0.508" width="0.1524" layer="21"/>
<wire x1="-0.762" y1="-0.508" x2="-0.762" y2="-0.762" width="0.1524" layer="21"/>
<wire x1="-0.762" y1="-0.762" x2="-0.508" y2="-0.762" width="0.1524" layer="21"/>
<wire x1="0.508" y1="-0.762" x2="0.762" y2="-0.762" width="0.1524" layer="21"/>
<wire x1="0.762" y1="-0.762" x2="0.762" y2="-0.508" width="0.1524" layer="21"/>
<wire x1="0.762" y1="0.508" x2="0.762" y2="0.762" width="0.1524" layer="21"/>
<wire x1="0.762" y1="0.762" x2="0.508" y2="0.762" width="0.1524" layer="21"/>
<circle x="0" y="0" radius="0.635" width="0.1524" layer="51"/>
<pad name="1" x="0" y="0" drill="0.9144" diameter="1.6002" shape="octagon"/>
<text x="-0.762" y="1.016" size="1.27" layer="25" ratio="10">&gt;NAME</text>
<text x="0" y="0.6" size="0.0254" layer="27">&gt;VALUE</text>
</package>
</packages>
<packages3d>
<package3d name="1,6/0,9" urn="urn:adsk.eagle:package:30840/1" type="box" library_version="2">
<description>THROUGH-HOLE PAD</description>
<packageinstances>
<packageinstance name="1,6/0,9"/>
</packageinstances>
</package3d>
</packages3d>
</library>
<library name="TIMax3232">
<packages>
<package name="DB16">
<smd name="1" x="-3.429" y="2.275" dx="2.0574" dy="0.4318" layer="1"/>
<smd name="2" x="-3.429" y="1.625" dx="2.0574" dy="0.4318" layer="1"/>
<smd name="3" x="-3.429" y="0.975" dx="2.0574" dy="0.4318" layer="1"/>
<smd name="4" x="-3.429" y="0.325" dx="2.0574" dy="0.4318" layer="1"/>
<smd name="5" x="-3.429" y="-0.324996875" dx="2.0574" dy="0.4318" layer="1"/>
<smd name="6" x="-3.429" y="-0.975" dx="2.0574" dy="0.4318" layer="1"/>
<smd name="7" x="-3.429" y="-1.624996875" dx="2.0574" dy="0.4318" layer="1"/>
<smd name="8" x="-3.429" y="-2.275" dx="2.0574" dy="0.4318" layer="1"/>
<smd name="9" x="3.429" y="-2.275" dx="2.0574" dy="0.4318" layer="1"/>
<smd name="10" x="3.429" y="-1.625" dx="2.0574" dy="0.4318" layer="1"/>
<smd name="11" x="3.429" y="-0.975" dx="2.0574" dy="0.4318" layer="1"/>
<smd name="12" x="3.429" y="-0.325" dx="2.0574" dy="0.4318" layer="1"/>
<smd name="13" x="3.429" y="0.324996875" dx="2.0574" dy="0.4318" layer="1"/>
<smd name="14" x="3.429" y="0.975" dx="2.0574" dy="0.4318" layer="1"/>
<smd name="15" x="3.429" y="1.624996875" dx="2.0574" dy="0.4318" layer="1"/>
<smd name="16" x="3.429" y="2.275" dx="2.0574" dy="0.4318" layer="1"/>
<wire x1="-2.794" y1="2.0828" x2="-2.794" y2="2.4638" width="0.1524" layer="51"/>
<wire x1="-2.794" y1="2.4638" x2="-4.1148" y2="2.4638" width="0.1524" layer="51"/>
<wire x1="-4.1148" y1="2.4638" x2="-4.1148" y2="2.0828" width="0.1524" layer="51"/>
<wire x1="-4.1148" y1="2.0828" x2="-2.794" y2="2.0828" width="0.1524" layer="51"/>
<wire x1="-2.794" y1="1.4224" x2="-2.794" y2="1.8034" width="0.1524" layer="51"/>
<wire x1="-2.794" y1="1.8034" x2="-4.1148" y2="1.8034" width="0.1524" layer="51"/>
<wire x1="-4.1148" y1="1.8034" x2="-4.1148" y2="1.4224" width="0.1524" layer="51"/>
<wire x1="-4.1148" y1="1.4224" x2="-2.794" y2="1.4224" width="0.1524" layer="51"/>
<wire x1="-2.794" y1="0.7874" x2="-2.794" y2="1.1684" width="0.1524" layer="51"/>
<wire x1="-2.794" y1="1.1684" x2="-4.1148" y2="1.1684" width="0.1524" layer="51"/>
<wire x1="-4.1148" y1="1.1684" x2="-4.1148" y2="0.7874" width="0.1524" layer="51"/>
<wire x1="-4.1148" y1="0.7874" x2="-2.794" y2="0.7874" width="0.1524" layer="51"/>
<wire x1="-2.794" y1="0.127" x2="-2.794" y2="0.508" width="0.1524" layer="51"/>
<wire x1="-2.794" y1="0.508" x2="-4.1148" y2="0.508" width="0.1524" layer="51"/>
<wire x1="-4.1148" y1="0.508" x2="-4.1148" y2="0.127" width="0.1524" layer="51"/>
<wire x1="-4.1148" y1="0.127" x2="-2.794" y2="0.127" width="0.1524" layer="51"/>
<wire x1="-2.794" y1="-0.508" x2="-2.794" y2="-0.127" width="0.1524" layer="51"/>
<wire x1="-2.794" y1="-0.127" x2="-4.1148" y2="-0.127" width="0.1524" layer="51"/>
<wire x1="-4.1148" y1="-0.127" x2="-4.1148" y2="-0.508" width="0.1524" layer="51"/>
<wire x1="-4.1148" y1="-0.508" x2="-2.794" y2="-0.508" width="0.1524" layer="51"/>
<wire x1="-2.794" y1="-1.1684" x2="-2.794" y2="-0.7874" width="0.1524" layer="51"/>
<wire x1="-2.794" y1="-0.7874" x2="-4.1148" y2="-0.7874" width="0.1524" layer="51"/>
<wire x1="-4.1148" y1="-0.7874" x2="-4.1148" y2="-1.1684" width="0.1524" layer="51"/>
<wire x1="-4.1148" y1="-1.1684" x2="-2.794" y2="-1.1684" width="0.1524" layer="51"/>
<wire x1="-2.794" y1="-1.8034" x2="-2.794" y2="-1.4224" width="0.1524" layer="51"/>
<wire x1="-2.794" y1="-1.4224" x2="-4.1148" y2="-1.4224" width="0.1524" layer="51"/>
<wire x1="-4.1148" y1="-1.4224" x2="-4.1148" y2="-1.8034" width="0.1524" layer="51"/>
<wire x1="-4.1148" y1="-1.8034" x2="-2.794" y2="-1.8034" width="0.1524" layer="51"/>
<wire x1="-2.794" y1="-2.4638" x2="-2.794" y2="-2.0828" width="0.1524" layer="51"/>
<wire x1="-2.794" y1="-2.0828" x2="-4.1148" y2="-2.0828" width="0.1524" layer="51"/>
<wire x1="-4.1148" y1="-2.0828" x2="-4.1148" y2="-2.4638" width="0.1524" layer="51"/>
<wire x1="-4.1148" y1="-2.4638" x2="-2.794" y2="-2.4638" width="0.1524" layer="51"/>
<wire x1="2.794" y1="-2.0828" x2="2.794" y2="-2.4638" width="0.1524" layer="51"/>
<wire x1="2.794" y1="-2.4638" x2="4.1148" y2="-2.4638" width="0.1524" layer="51"/>
<wire x1="4.1148" y1="-2.4638" x2="4.1148" y2="-2.0828" width="0.1524" layer="51"/>
<wire x1="4.1148" y1="-2.0828" x2="2.794" y2="-2.0828" width="0.1524" layer="51"/>
<wire x1="2.794" y1="-1.4224" x2="2.794" y2="-1.8034" width="0.1524" layer="51"/>
<wire x1="2.794" y1="-1.8034" x2="4.1148" y2="-1.8034" width="0.1524" layer="51"/>
<wire x1="4.1148" y1="-1.8034" x2="4.1148" y2="-1.4224" width="0.1524" layer="51"/>
<wire x1="4.1148" y1="-1.4224" x2="2.794" y2="-1.4224" width="0.1524" layer="51"/>
<wire x1="2.794" y1="-0.7874" x2="2.794" y2="-1.1684" width="0.1524" layer="51"/>
<wire x1="2.794" y1="-1.1684" x2="4.1148" y2="-1.1684" width="0.1524" layer="51"/>
<wire x1="4.1148" y1="-1.1684" x2="4.1148" y2="-0.7874" width="0.1524" layer="51"/>
<wire x1="4.1148" y1="-0.7874" x2="2.794" y2="-0.7874" width="0.1524" layer="51"/>
<wire x1="2.794" y1="-0.127" x2="2.794" y2="-0.508" width="0.1524" layer="51"/>
<wire x1="2.794" y1="-0.508" x2="4.1148" y2="-0.508" width="0.1524" layer="51"/>
<wire x1="4.1148" y1="-0.508" x2="4.1148" y2="-0.127" width="0.1524" layer="51"/>
<wire x1="4.1148" y1="-0.127" x2="2.794" y2="-0.127" width="0.1524" layer="51"/>
<wire x1="2.794" y1="0.508" x2="2.794" y2="0.127" width="0.1524" layer="51"/>
<wire x1="2.794" y1="0.127" x2="4.1148" y2="0.127" width="0.1524" layer="51"/>
<wire x1="4.1148" y1="0.127" x2="4.1148" y2="0.508" width="0.1524" layer="51"/>
<wire x1="4.1148" y1="0.508" x2="2.794" y2="0.508" width="0.1524" layer="51"/>
<wire x1="2.794" y1="1.1684" x2="2.794" y2="0.7874" width="0.1524" layer="51"/>
<wire x1="2.794" y1="0.7874" x2="4.1148" y2="0.7874" width="0.1524" layer="51"/>
<wire x1="4.1148" y1="0.7874" x2="4.1148" y2="1.1684" width="0.1524" layer="51"/>
<wire x1="4.1148" y1="1.1684" x2="2.794" y2="1.1684" width="0.1524" layer="51"/>
<wire x1="2.794" y1="1.8034" x2="2.794" y2="1.4224" width="0.1524" layer="51"/>
<wire x1="2.794" y1="1.4224" x2="4.1148" y2="1.4224" width="0.1524" layer="51"/>
<wire x1="4.1148" y1="1.4224" x2="4.1148" y2="1.8034" width="0.1524" layer="51"/>
<wire x1="4.1148" y1="1.8034" x2="2.794" y2="1.8034" width="0.1524" layer="51"/>
<wire x1="2.794" y1="2.4638" x2="2.794" y2="2.0828" width="0.1524" layer="51"/>
<wire x1="2.794" y1="2.0828" x2="4.1148" y2="2.0828" width="0.1524" layer="51"/>
<wire x1="4.1148" y1="2.0828" x2="4.1148" y2="2.4638" width="0.1524" layer="51"/>
<wire x1="4.1148" y1="2.4638" x2="2.794" y2="2.4638" width="0.1524" layer="51"/>
<wire x1="-2.794" y1="-3.2512" x2="2.794" y2="-3.2512" width="0.1524" layer="51"/>
<wire x1="2.794" y1="-3.2512" x2="2.794" y2="3.2512" width="0.1524" layer="51"/>
<wire x1="2.794" y1="3.2512" x2="0.3048" y2="3.2512" width="0.1524" layer="51"/>
<wire x1="0.3048" y1="3.2512" x2="-0.3048" y2="3.2512" width="0.1524" layer="51"/>
<wire x1="-0.3048" y1="3.2512" x2="-2.794" y2="3.2512" width="0.1524" layer="51"/>
<wire x1="-2.794" y1="3.2512" x2="-2.794" y2="-3.2512" width="0.1524" layer="51"/>
<wire x1="0.3048" y1="3.2512" x2="-0.3048" y2="3.2512" width="0.1524" layer="51" curve="-180"/>
<text x="-4.2672" y="2.5908" size="1.27" layer="51" ratio="6" rot="SR0">*</text>
<wire x1="-2.794" y1="-3.2512" x2="2.794" y2="-3.2512" width="0.1524" layer="21"/>
<wire x1="2.794" y1="-3.2512" x2="2.794" y2="-2.8194" width="0.1524" layer="21"/>
<wire x1="2.794" y1="3.2512" x2="0.3048" y2="3.2512" width="0.1524" layer="21"/>
<wire x1="0.3048" y1="3.2512" x2="-0.3048" y2="3.2512" width="0.1524" layer="21"/>
<wire x1="-0.3048" y1="3.2512" x2="-2.794" y2="3.2512" width="0.1524" layer="21"/>
<wire x1="-2.794" y1="3.2512" x2="-2.794" y2="2.8194" width="0.1524" layer="21"/>
<wire x1="-2.794" y1="-2.8194" x2="-2.794" y2="-3.2512" width="0.1524" layer="21"/>
<wire x1="2.794" y1="2.8194" x2="2.794" y2="3.2512" width="0.1524" layer="21"/>
<wire x1="0.3048" y1="3.2512" x2="-0.3048" y2="3.2512" width="0.1524" layer="21" curve="-180"/>
<polygon width="0.0254" layer="21">
<vertex x="4.9657" y="-1.4345"/>
<vertex x="4.9657" y="-1.8155"/>
<vertex x="4.7117" y="-1.8155"/>
<vertex x="4.7117" y="-1.4345"/>
</polygon>
<text x="-4.2672" y="2.5908" size="1.27" layer="21" ratio="6" rot="SR0">*</text>
<text x="-1.7272" y="-0.635" size="1.27" layer="21" ratio="6" rot="SR0">&gt;Value</text>
<text x="-3.2766" y="-0.635" size="1.27" layer="25" ratio="6" rot="SR0">&gt;Name</text>
</package>
</packages>
</library>
<library name="SM06B-GHS-TB_LF__SN_">
<packages>
<package name="JST_SM06B-GHS-TB(LF)(SN)">
<text x="-5.715" y="3.145" size="1.27" layer="25">&gt;NAME</text>
<text x="-5.715" y="-3.205" size="1.27" layer="27" align="top-left">&gt;VALUE</text>
<wire x1="-5.375" y1="-2.425" x2="5.375" y2="-2.425" width="0.127" layer="51"/>
<wire x1="5.375" y1="-2.425" x2="5.375" y2="1.625" width="0.127" layer="51"/>
<wire x1="5.375" y1="1.625" x2="-5.375" y2="1.625" width="0.127" layer="51"/>
<wire x1="-5.375" y1="1.625" x2="-5.375" y2="-2.425" width="0.127" layer="51"/>
<wire x1="-4.125" y1="-2.425" x2="4.125" y2="-2.425" width="0.127" layer="21"/>
<wire x1="-5.375" y1="1.625" x2="-5.375" y2="0.375" width="0.127" layer="21"/>
<wire x1="5.375" y1="1.625" x2="5.375" y2="0.375" width="0.127" layer="21"/>
<wire x1="-5.375" y1="1.625" x2="-3.775" y2="1.625" width="0.127" layer="21"/>
<wire x1="5.375" y1="1.625" x2="3.775" y2="1.625" width="0.127" layer="21"/>
<wire x1="-5.725" y1="2.975" x2="-5.725" y2="-2.925" width="0.05" layer="39"/>
<wire x1="-5.725" y1="-2.925" x2="5.725" y2="-2.925" width="0.05" layer="39"/>
<wire x1="5.725" y1="-2.925" x2="5.725" y2="2.975" width="0.05" layer="39"/>
<wire x1="5.725" y1="2.975" x2="-5.725" y2="2.975" width="0.05" layer="39"/>
<circle x="-6.0325" y="1.875" radius="0.1" width="0.2" layer="51"/>
<circle x="-6.0325" y="1.875" radius="0.1" width="0.2" layer="21"/>
<smd name="1" x="-3.125" y="1.875" dx="0.6" dy="1.7" layer="1" rot="R180"/>
<smd name="2" x="-1.875" y="1.875" dx="0.6" dy="1.7" layer="1" rot="R180"/>
<smd name="3" x="-0.625" y="1.875" dx="0.6" dy="1.7" layer="1" rot="R180"/>
<smd name="4" x="0.625" y="1.875" dx="0.6" dy="1.7" layer="1" rot="R180"/>
<smd name="5" x="1.875" y="1.875" dx="0.6" dy="1.7" layer="1" rot="R180"/>
<smd name="6" x="3.125" y="1.875" dx="0.6" dy="1.7" layer="1" rot="R180"/>
<smd name="S2" x="4.975" y="-1.325" dx="1" dy="2.7" layer="1" rot="R180"/>
<smd name="S1" x="-4.975" y="-1.325" dx="1" dy="2.7" layer="1" rot="R180"/>
</package>
<package name="AMAXT30">
<hole x="-5.5" y="5" drill="1"/>
<hole x="5.5" y="5" drill="1"/>
<pad name="P$1" x="-2.5" y="-5" drill="1.7"/>
<pad name="P$2" x="2.5" y="-5" drill="1.7"/>
<text x="-3.81" y="-3.81" size="1.778" layer="21">+</text>
<wire x1="-8" y1="7" x2="8" y2="7" width="0.1524" layer="21"/>
<wire x1="8" y1="7" x2="8" y2="-7" width="0.1524" layer="21"/>
<wire x1="8" y1="-7" x2="-8" y2="-7" width="0.1524" layer="21"/>
<wire x1="-8" y1="-7" x2="-8" y2="7" width="0.1524" layer="21"/>
</package>
</packages>
</library>
</libraries>
<attributes>
</attributes>
<variantdefs>
</variantdefs>
<classes>
<class number="0" name="default" width="0" drill="0">
</class>
</classes>
<designrules name="default">
<description language="de">&lt;b&gt;EAGLE Design Rules&lt;/b&gt;
&lt;p&gt;
Die Standard-Design-Rules sind so gewählt, dass sie für 
die meisten Anwendungen passen. Sollte ihre Platine 
besondere Anforderungen haben, treffen Sie die erforderlichen
Einstellungen hier und speichern die Design Rules unter 
einem neuen Namen ab.</description>
<description language="en">&lt;b&gt;EAGLE Design Rules&lt;/b&gt;
&lt;p&gt;
The default Design Rules have been set to cover
a wide range of applications. Your particular design
may have different requirements, so please make the
necessary adjustments and save your customized
design rules under a new name.</description>
<param name="layerSetup" value="(1*16)"/>
<param name="mtCopper" value="0.035mm 0.035mm 0.035mm 0.035mm 0.035mm 0.035mm 0.035mm 0.035mm 0.035mm 0.035mm 0.035mm 0.035mm 0.035mm 0.035mm 0.035mm 0.035mm"/>
<param name="mtIsolate" value="1.5mm 0.15mm 0.2mm 0.15mm 0.2mm 0.15mm 0.2mm 0.15mm 0.2mm 0.15mm 0.2mm 0.15mm 0.2mm 0.15mm 0.2mm"/>
<param name="mdWireWire" value="6mil"/>
<param name="mdWirePad" value="6mil"/>
<param name="mdWireVia" value="6mil"/>
<param name="mdPadPad" value="6mil"/>
<param name="mdPadVia" value="6mil"/>
<param name="mdViaVia" value="6mil"/>
<param name="mdSmdPad" value="6mil"/>
<param name="mdSmdVia" value="6mil"/>
<param name="mdSmdSmd" value="6mil"/>
<param name="mdViaViaSameLayer" value="6mil"/>
<param name="mnLayersViaInSmd" value="2"/>
<param name="mdCopperDimension" value="40mil"/>
<param name="mdDrill" value="6mil"/>
<param name="mdSmdStop" value="0mil"/>
<param name="msWidth" value="6mil"/>
<param name="msDrill" value="0.35mm"/>
<param name="msMicroVia" value="9.99mm"/>
<param name="msBlindViaRatio" value="0.5"/>
<param name="rvPadTop" value="0.25"/>
<param name="rvPadInner" value="0.25"/>
<param name="rvPadBottom" value="0.25"/>
<param name="rvViaOuter" value="0.25"/>
<param name="rvViaInner" value="0.25"/>
<param name="rvMicroViaOuter" value="0.25"/>
<param name="rvMicroViaInner" value="0.25"/>
<param name="rlMinPadTop" value="10mil"/>
<param name="rlMaxPadTop" value="20mil"/>
<param name="rlMinPadInner" value="10mil"/>
<param name="rlMaxPadInner" value="20mil"/>
<param name="rlMinPadBottom" value="10mil"/>
<param name="rlMaxPadBottom" value="20mil"/>
<param name="rlMinViaOuter" value="8mil"/>
<param name="rlMaxViaOuter" value="20mil"/>
<param name="rlMinViaInner" value="8mil"/>
<param name="rlMaxViaInner" value="20mil"/>
<param name="rlMinMicroViaOuter" value="4mil"/>
<param name="rlMaxMicroViaOuter" value="20mil"/>
<param name="rlMinMicroViaInner" value="4mil"/>
<param name="rlMaxMicroViaInner" value="20mil"/>
<param name="psTop" value="-1"/>
<param name="psBottom" value="-1"/>
<param name="psFirst" value="-1"/>
<param name="psElongationLong" value="100"/>
<param name="psElongationOffset" value="100"/>
<param name="mvStopFrame" value="1"/>
<param name="mvCreamFrame" value="0"/>
<param name="mlMinStopFrame" value="4mil"/>
<param name="mlMaxStopFrame" value="4mil"/>
<param name="mlMinCreamFrame" value="0mil"/>
<param name="mlMaxCreamFrame" value="0mil"/>
<param name="mlViaStopLimit" value="0mil"/>
<param name="srRoundness" value="0"/>
<param name="srMinRoundness" value="0mil"/>
<param name="srMaxRoundness" value="0mil"/>
<param name="slThermalIsolate" value="10mil"/>
<param name="slThermalsForVias" value="0"/>
<param name="dpMaxLengthDifference" value="10mm"/>
<param name="dpGapFactor" value="2.5"/>
<param name="checkAngle" value="0"/>
<param name="checkFont" value="1"/>
<param name="checkRestrict" value="1"/>
<param name="checkStop" value="0"/>
<param name="checkValues" value="0"/>
<param name="checkNames" value="1"/>
<param name="checkWireStubs" value="1"/>
<param name="checkPolygonWidth" value="0"/>
<param name="useDiameter" value="13"/>
<param name="maxErrors" value="50"/>
</designrules>
<autorouter>
<pass name="Default">
<param name="RoutingGrid" value="50mil"/>
<param name="AutoGrid" value="1"/>
<param name="Efforts" value="0"/>
<param name="TopRouterVariant" value="1"/>
<param name="tpViaShape" value="round"/>
<param name="PrefDir.1" value="a"/>
<param name="PrefDir.2" value="0"/>
<param name="PrefDir.3" value="0"/>
<param name="PrefDir.4" value="0"/>
<param name="PrefDir.5" value="0"/>
<param name="PrefDir.6" value="0"/>
<param name="PrefDir.7" value="0"/>
<param name="PrefDir.8" value="0"/>
<param name="PrefDir.9" value="0"/>
<param name="PrefDir.10" value="0"/>
<param name="PrefDir.11" value="0"/>
<param name="PrefDir.12" value="0"/>
<param name="PrefDir.13" value="0"/>
<param name="PrefDir.14" value="0"/>
<param name="PrefDir.15" value="0"/>
<param name="PrefDir.16" value="a"/>
<param name="cfVia" value="8"/>
<param name="cfNonPref" value="5"/>
<param name="cfChangeDir" value="2"/>
<param name="cfOrthStep" value="2"/>
<param name="cfDiagStep" value="3"/>
<param name="cfExtdStep" value="0"/>
<param name="cfBonusStep" value="1"/>
<param name="cfMalusStep" value="1"/>
<param name="cfPadImpact" value="4"/>
<param name="cfSmdImpact" value="4"/>
<param name="cfBusImpact" value="0"/>
<param name="cfHugging" value="3"/>
<param name="cfAvoid" value="4"/>
<param name="cfPolygon" value="10"/>
<param name="cfBase.1" value="0"/>
<param name="cfBase.2" value="1"/>
<param name="cfBase.3" value="1"/>
<param name="cfBase.4" value="1"/>
<param name="cfBase.5" value="1"/>
<param name="cfBase.6" value="1"/>
<param name="cfBase.7" value="1"/>
<param name="cfBase.8" value="1"/>
<param name="cfBase.9" value="1"/>
<param name="cfBase.10" value="1"/>
<param name="cfBase.11" value="1"/>
<param name="cfBase.12" value="1"/>
<param name="cfBase.13" value="1"/>
<param name="cfBase.14" value="1"/>
<param name="cfBase.15" value="1"/>
<param name="cfBase.16" value="0"/>
<param name="mnVias" value="20"/>
<param name="mnSegments" value="9999"/>
<param name="mnExtdSteps" value="9999"/>
<param name="mnRipupLevel" value="10"/>
<param name="mnRipupSteps" value="100"/>
<param name="mnRipupTotal" value="100"/>
</pass>
<pass name="Follow-me" refer="Default" active="yes">
</pass>
<pass name="Busses" refer="Default" active="yes">
<param name="cfNonPref" value="4"/>
<param name="cfBusImpact" value="4"/>
<param name="cfHugging" value="0"/>
<param name="mnVias" value="0"/>
</pass>
<pass name="Route" refer="Default" active="yes">
</pass>
<pass name="Optimize1" refer="Default" active="yes">
<param name="cfVia" value="99"/>
<param name="cfExtdStep" value="10"/>
<param name="cfHugging" value="1"/>
<param name="mnExtdSteps" value="1"/>
<param name="mnRipupLevel" value="0"/>
</pass>
<pass name="Optimize2" refer="Optimize1" active="yes">
<param name="cfNonPref" value="0"/>
<param name="cfChangeDir" value="6"/>
<param name="cfExtdStep" value="0"/>
<param name="cfBonusStep" value="2"/>
<param name="cfMalusStep" value="2"/>
<param name="cfPadImpact" value="2"/>
<param name="cfSmdImpact" value="2"/>
<param name="cfHugging" value="0"/>
</pass>
<pass name="Optimize3" refer="Optimize2" active="yes">
<param name="cfChangeDir" value="8"/>
<param name="cfPadImpact" value="0"/>
<param name="cfSmdImpact" value="0"/>
</pass>
<pass name="Optimize4" refer="Optimize3" active="yes">
<param name="cfChangeDir" value="25"/>
</pass>
</autorouter>
<elements>
<element name="C1" library="rcl" library_urn="urn:adsk.eagle:library:334" package="C0603" package3d_urn="urn:adsk.eagle:package:23616/2" value="0.1uF" x="7.52219375" y="9.59168125" smashed="yes">
<attribute name="POPULARITY" value="37" x="25.30219375" y="-1.83831875" size="1.778" layer="27" display="off"/>
<attribute name="SPICEPREFIX" value="C" x="25.30219375" y="-1.83831875" size="1.778" layer="27" display="off"/>
</element>
<element name="C2" library="rcl" library_urn="urn:adsk.eagle:library:334" package="C0603" package3d_urn="urn:adsk.eagle:package:23616/2" value="0.1uF" x="10.77824375" y="9.6284375" smashed="yes">
<attribute name="POPULARITY" value="37" x="34.90824375" y="-1.8015625" size="1.778" layer="27" display="off"/>
<attribute name="SPICEPREFIX" value="C" x="34.90824375" y="-1.8015625" size="1.778" layer="27" display="off"/>
</element>
<element name="C3" library="rcl" library_urn="urn:adsk.eagle:library:334" package="C0603" package3d_urn="urn:adsk.eagle:package:23616/2" value="0.1uF" x="7.52219375" y="12.0833375" smashed="yes" rot="R180">
<attribute name="POPULARITY" value="37" x="-22.95780625" y="23.5133375" size="1.778" layer="27" rot="R180" display="off"/>
<attribute name="SPICEPREFIX" value="C" x="-22.95780625" y="23.5133375" size="1.778" layer="27" rot="R180" display="off"/>
</element>
<element name="C4" library="rcl" library_urn="urn:adsk.eagle:library:334" package="C0603" package3d_urn="urn:adsk.eagle:package:23616/2" value="0.1uF" x="10.77824375" y="12.13168125" smashed="yes" rot="R180">
<attribute name="POPULARITY" value="37" x="-7.00175625" y="28.64168125" size="1.778" layer="27" rot="R180" display="off"/>
<attribute name="SPICEPREFIX" value="C" x="-7.00175625" y="28.64168125" size="1.778" layer="27" rot="R180" display="off"/>
</element>
<element name="RG" library="wirepad" library_urn="urn:adsk.eagle:library:412" package="1,6/0,9" package3d_urn="urn:adsk.eagle:package:30840/1" value="" x="2.175" y="47.284" smashed="yes">
<attribute name="NAME" x="1.413" y="48.3" size="0.635" layer="25" ratio="10"/>
<attribute name="POPULARITY" value="7" x="21.225" y="21.884" size="1.778" layer="27" display="off"/>
<attribute name="VALUE" x="2.175" y="47.884" size="0.0254" layer="27"/>
</element>
<element name="RR" library="wirepad" library_urn="urn:adsk.eagle:library:412" package="1,6/0,9" package3d_urn="urn:adsk.eagle:package:30840/1" value="" x="4.715" y="47.284" smashed="yes">
<attribute name="NAME" x="3.953" y="48.3" size="0.635" layer="25" ratio="10"/>
<attribute name="POPULARITY" value="7" x="22.495" y="16.804" size="1.778" layer="27" display="off"/>
<attribute name="VALUE" x="4.715" y="47.884" size="0.0254" layer="27"/>
</element>
<element name="RT" library="wirepad" library_urn="urn:adsk.eagle:library:412" package="1,6/0,9" package3d_urn="urn:adsk.eagle:package:30840/1" value="" x="7.255" y="47.284" smashed="yes">
<attribute name="NAME" x="6.493" y="48.3" size="0.635" layer="25" ratio="10"/>
<attribute name="POPULARITY" value="7" x="31.385" y="16.804" size="1.778" layer="27" display="off"/>
<attribute name="VALUE" x="7.255" y="47.884" size="0.0254" layer="27"/>
</element>
<element name="RV" library="wirepad" library_urn="urn:adsk.eagle:library:412" package="1,6/0,9" package3d_urn="urn:adsk.eagle:package:30840/1" value="" x="9.795" y="47.284" smashed="yes">
<attribute name="NAME" x="9.033" y="48.3" size="0.635" layer="25" ratio="10"/>
<attribute name="POPULARITY" value="7" x="30.115" y="26.964" size="1.778" layer="27" display="off"/>
<attribute name="VALUE" x="9.795" y="47.884" size="0.0254" layer="27"/>
</element>
<element name="U1" library="TIMax3232" package="DB16" value="MAX3232MDBREP" x="9.649109375" y="20.015771875" smashed="yes" rot="R90">
<attribute name="DATASHEET_URL" value="http://www.ti.com/lit/gpn/MAX3232-EP" x="13.459109375" y="47.955771875" size="1.778" layer="27" rot="R90" display="off"/>
<attribute name="DESCRIPTION" value="Enhanced Product 3-V To 5.5-V Multichannel Rs-232 Line Driver/Receiver W/Plus/-15-Kv Esd" x="13.459109375" y="47.955771875" size="1.778" layer="27" rot="R90" display="off"/>
<attribute name="FAMILY_NAME" value="RS-232" x="13.459109375" y="47.955771875" size="1.778" layer="27" rot="R90" display="off"/>
<attribute name="GENERIC_PART_NUMBER" value="MAX3232-EP" x="13.459109375" y="47.955771875" size="1.778" layer="27" rot="R90" display="off"/>
<attribute name="INDUSTRY_STD_PKG_TYPE" value="SSOP" x="13.459109375" y="47.955771875" size="1.778" layer="27" rot="R90" display="off"/>
<attribute name="MANUFACTURER" value="Texas Instruments" x="13.459109375" y="47.955771875" size="1.778" layer="27" rot="R90" display="off"/>
<attribute name="MANUFACTURER_PART_NUMBER" value="MAX3232MDBREP" x="13.459109375" y="47.955771875" size="1.778" layer="27" rot="R90" display="off"/>
<attribute name="NAME" x="10.284109375" y="16.739171875" size="1.27" layer="25" ratio="6" rot="SR90"/>
<attribute name="PACKAGE_DESIGNATOR" value="DB" x="13.459109375" y="47.955771875" size="1.778" layer="27" rot="R90" display="off"/>
<attribute name="PIN_COUNT" value="16" x="13.459109375" y="47.955771875" size="1.778" layer="27" rot="R90" display="off"/>
<attribute name="VENDOR" value="Texas Instruments" x="13.459109375" y="47.955771875" size="1.778" layer="27" rot="R90" display="off"/>
</element>
<element name="CBY" library="rcl" library_urn="urn:adsk.eagle:library:334" package="C0603" package3d_urn="urn:adsk.eagle:package:23616/2" value="0.1uF" x="15.75405625" y="10.097096875" smashed="yes" rot="R270">
<attribute name="POPULARITY" value="37" x="15.75405625" y="10.097096875" size="1.778" layer="27" rot="R270" display="off"/>
<attribute name="SPICEPREFIX" value="C" x="15.75405625" y="10.097096875" size="1.778" layer="27" rot="R270" display="off"/>
</element>
<element name="J1" library="SM06B-GHS-TB_LF__SN_" package="JST_SM06B-GHS-TB(LF)(SN)" value="SM06B-GHS-TB(LF)(SN)" x="9.241428125" y="3.785996875" smashed="yes">
<attribute name="DESCRIPTION" value=" Connector Header Surface Mount, Right Angle 6 position 0.049 _1.25mm_ " x="9.241428125" y="3.785996875" size="1.778" layer="27" display="off"/>
<attribute name="DIGI-KEY_PART_NUMBER" value="455-1568-1-ND" x="9.241428125" y="3.785996875" size="1.778" layer="27" display="off"/>
<attribute name="DIGIKEY-PURCHASE-URL" value="https://snapeda.com/shop?store=DigiKey&amp;id=817690" x="9.241428125" y="3.785996875" size="1.778" layer="27" display="off"/>
<attribute name="MF" value="JST Sales" x="9.241428125" y="3.785996875" size="1.778" layer="27" display="off"/>
<attribute name="MP" value="SM06B-GHS-TB_LF__SN_" x="9.241428125" y="3.785996875" size="1.778" layer="27" display="off"/>
<attribute name="NAME" x="3.526428125" y="6.930996875" size="1.27" layer="25"/>
<attribute name="PACKAGE" value="None" x="9.241428125" y="3.785996875" size="1.778" layer="27" display="off"/>
<attribute name="VALUE" x="3.526428125" y="0.580996875" size="1.27" layer="27" align="top-left"/>
</element>
<element name="U$1" library="SM06B-GHS-TB_LF__SN_" package="AMAXT30" value="AMASSXT30" x="5.5679375" y="35.76294375" smashed="yes" rot="R90"/>
<element name="RAG" library="wirepad" library_urn="urn:adsk.eagle:library:412" package="1,6/0,9" package3d_urn="urn:adsk.eagle:package:30840/1" value="" x="13.47" y="47.284" smashed="yes">
<attribute name="NAME" x="12.708" y="48.3" size="0.6096" layer="25" ratio="10"/>
<attribute name="POPULARITY" value="7" x="13.47" y="47.284" size="1.778" layer="27" display="off"/>
<attribute name="VALUE" x="13.47" y="47.884" size="0.0254" layer="27"/>
</element>
<element name="RAP" library="wirepad" library_urn="urn:adsk.eagle:library:412" package="1,6/0,9" package3d_urn="urn:adsk.eagle:package:30840/1" value="" x="16.74" y="47.284" smashed="yes">
<attribute name="NAME" x="15.978" y="48.3" size="0.6096" layer="25" ratio="10"/>
<attribute name="POPULARITY" value="7" x="16.74" y="47.284" size="1.778" layer="27" display="off"/>
<attribute name="VALUE" x="16.74" y="47.884" size="0.0254" layer="27"/>
</element>
</elements>
<signals>
<signal name="N$1">
<contactref element="C1" pad="1"/>
<wire x1="6.448290625" y1="9.59168125" x2="6.67219375" y2="9.59168125" width="0.1524" layer="1"/>
<contactref element="U1" pad="1"/>
<wire x1="6.54" y1="9.4594875" x2="6.67219375" y2="9.59168125" width="0.1524" layer="1"/>
<wire x1="7.374109375" y1="16.586771875" x2="7.374109375" y2="15.334109375" width="0.1524" layer="1"/>
<wire x1="7.374109375" y1="15.334109375" x2="5.54" y2="13.5" width="0.1524" layer="1"/>
<wire x1="5.54" y1="13.5" x2="5.54" y2="10" width="0.1524" layer="1"/>
<wire x1="5.54" y1="10" x2="5.94831875" y2="9.59168125" width="0.1524" layer="1"/>
<wire x1="5.94831875" y1="9.59168125" x2="6.67219375" y2="9.59168125" width="0.1524" layer="1"/>
</signal>
<signal name="N$2">
<contactref element="C1" pad="2"/>
<wire x1="8.37219375" y1="9.657490625" x2="8.37219375" y2="9.59168125" width="0.1524" layer="1"/>
<contactref element="U1" pad="3"/>
<wire x1="8.674109375" y1="16.586771875" x2="8.674109375" y2="14.043196875" width="0.1524" layer="1"/>
<wire x1="8.674109375" y1="14.043196875" x2="8.6309125" y2="14" width="0.1524" layer="1"/>
<via x="8.6309125" y="14" extent="1-16" drill="0.35"/>
<wire x1="8.6309125" y1="14" x2="8.6309125" y2="8.5909125" width="0.1524" layer="16"/>
<wire x1="8.6309125" y1="8.5909125" x2="8.04" y2="8" width="0.1524" layer="16"/>
<via x="8.04" y="8" extent="1-16" drill="0.35"/>
<wire x1="8.04" y1="8" x2="8.04" y2="9.2594875" width="0.1524" layer="1"/>
<wire x1="8.04" y1="9.2594875" x2="8.37219375" y2="9.59168125" width="0.1524" layer="1"/>
</signal>
<signal name="N$3">
<contactref element="C2" pad="1"/>
<wire x1="9.926359375" y1="9.6284375" x2="9.92824375" y2="9.6284375" width="0.1524" layer="1"/>
<contactref element="U1" pad="4"/>
<wire x1="9.324109375" y1="16.586771875" x2="9.324109375" y2="13.907965625" width="0.1524" layer="1"/>
<wire x1="9.324109375" y1="13.907965625" x2="9.5397125" y2="13.6923625" width="0.1524" layer="1"/>
<via x="9.5397125" y="13.6923625" extent="1-16" drill="0.35"/>
<wire x1="9.5397125" y1="13.6923625" x2="9.54" y2="13.692075" width="0.1524" layer="16"/>
<wire x1="9.54" y1="13.692075" x2="9.54" y2="8" width="0.1524" layer="16"/>
<via x="9.54" y="8" extent="1-16" drill="0.35"/>
<wire x1="9.54" y1="8" x2="9.92824375" y2="8.38824375" width="0.1524" layer="1"/>
<wire x1="9.92824375" y1="8.38824375" x2="9.92824375" y2="9.6284375" width="0.1524" layer="1"/>
</signal>
<signal name="N$4">
<contactref element="C2" pad="2"/>
<contactref element="U1" pad="5"/>
<wire x1="9.97410625" y1="16.586771875" x2="9.97410625" y2="14.54320625" width="0.1524" layer="1"/>
<wire x1="9.97410625" y1="14.54320625" x2="10.0173125" y2="14.5" width="0.1524" layer="1"/>
<via x="10.0173125" y="14.5" extent="1-16" drill="0.35"/>
<wire x1="10.0173125" y1="14.5" x2="13.04" y2="11.4773125" width="0.1524" layer="16"/>
<wire x1="13.04" y1="11.4773125" x2="13.04" y2="9.5" width="0.1524" layer="16"/>
<via x="13.04" y="9.5" extent="1-16" drill="0.35"/>
<wire x1="13.04" y1="9.5" x2="11.75668125" y2="9.5" width="0.1524" layer="1"/>
<wire x1="11.75668125" y1="9.5" x2="11.62824375" y2="9.6284375" width="0.1524" layer="1"/>
</signal>
<signal name="N$5">
<contactref element="C3" pad="1"/>
<wire x1="8.37219375" y1="11.678728125" x2="8.37219375" y2="12.0833375" width="0.1524" layer="1"/>
<contactref element="U1" pad="2"/>
<wire x1="8.024109375" y1="16.586771875" x2="8.024109375" y2="12.431421875" width="0.1524" layer="1"/>
<wire x1="8.024109375" y1="12.431421875" x2="8.37219375" y2="12.0833375" width="0.1524" layer="1"/>
</signal>
<signal name="N$6">
<contactref element="C4" pad="1"/>
<contactref element="U1" pad="6"/>
<wire x1="10.624109375" y1="16.586771875" x2="10.624109375" y2="13.135815625" width="0.1524" layer="1"/>
<wire x1="10.624109375" y1="13.135815625" x2="11.62824375" y2="12.13168125" width="0.1524" layer="1"/>
</signal>
<signal name="GND">
<contactref element="C4" pad="2"/>
<contactref element="C3" pad="2"/>
<contactref element="RG" pad="1"/>
<contactref element="CBY" pad="2"/>
<contactref element="U1" pad="15"/>
<contactref element="J1" pad="S1"/>
<contactref element="J1" pad="S2"/>
<contactref element="J1" pad="6"/>
<wire x1="6.58885625" y1="12" x2="6.67219375" y2="12.0833375" width="0.1524" layer="1"/>
<wire x1="15.75405625" y1="9.247096875" x2="15.54" y2="9.033040625" width="0.1524" layer="1"/>
<wire x1="6.58885625" y1="11.95114375" x2="6.58885625" y2="12" width="0.1524" layer="1"/>
<wire x1="12.366428125" y1="5.660996875" x2="12.366428125" y2="5.85946875" width="0.1524" layer="1"/>
<wire x1="4.266428125" y1="2.460996875" x2="4.04" y2="2.687425" width="0.1524" layer="1"/>
<wire x1="14.216428125" y1="2.460996875" x2="14.25543125" y2="2.5" width="0.1524" layer="1"/>
<polygon width="0.1524" layer="1" rank="2">
<vertex x="0" y="49.53"/>
<vertex x="19.05" y="49.53"/>
<vertex x="19.05" y="0"/>
<vertex x="0" y="0"/>
</polygon>
</signal>
<signal name="VCC">
<contactref element="RV" pad="1"/>
<contactref element="CBY" pad="1"/>
<contactref element="U1" pad="16"/>
<contactref element="J1" pad="1"/>
<polygon width="0.1524" layer="16" rank="2">
<vertex x="0" y="49.53"/>
<vertex x="19.05" y="49.53"/>
<vertex x="19.05" y="0"/>
<vertex x="0" y="0"/>
</polygon>
<wire x1="7.374109375" y1="23.444771875" x2="5.130228125" y2="23.444771875" width="0.1524" layer="1"/>
<wire x1="5.130228125" y1="23.444771875" x2="5.08" y2="23.495" width="0.1524" layer="1"/>
<via x="5.08" y="23.495" extent="1-16" drill="0.35"/>
<wire x1="6.116428125" y1="5.660996875" x2="5.427425" y2="6.35" width="0.1524" layer="1"/>
<wire x1="5.427425" y1="6.35" x2="1.905" y2="6.35" width="0.1524" layer="1"/>
<via x="1.905" y="6.35" extent="1-16" drill="0.35"/>
<wire x1="15.75405625" y1="10.947096875" x2="15.75405625" y2="12.57905625" width="0.1524" layer="1"/>
<wire x1="15.75405625" y1="12.57905625" x2="15.875" y2="12.7" width="0.1524" layer="1"/>
<via x="15.875" y="12.7" extent="1-16" drill="0.35"/>
</signal>
<signal name="RSRX">
<contactref element="RR" pad="1"/>
<contactref element="U1" pad="14"/>
<wire x1="8.674109375" y1="23.444771875" x2="8.674109375" y2="25.615890625" width="0.1524" layer="1"/>
<wire x1="4.715" y1="29.575" x2="4.715" y2="47.284" width="0.1524" layer="1"/>
<wire x1="8.674109375" y1="25.615890625" x2="4.715" y2="29.575" width="0.1524" layer="1"/>
</signal>
<signal name="RSTX">
<contactref element="RT" pad="1"/>
<contactref element="U1" pad="13"/>
<wire x1="9.3241125" y1="23.444771875" x2="9.3241125" y2="27.5058875" width="0.1524" layer="1"/>
<wire x1="9.3241125" y1="27.5058875" x2="6.985" y2="29.845" width="0.1524" layer="1"/>
<wire x1="6.985" y1="29.845" x2="6.985" y2="47.014" width="0.1524" layer="1"/>
<wire x1="6.985" y1="47.014" x2="7.255" y2="47.284" width="0.1524" layer="1"/>
</signal>
<signal name="TTX">
<contactref element="J1" pad="2"/>
<contactref element="U1" pad="11"/>
<wire x1="10.624109375" y1="23.444771875" x2="10.41860625" y2="23.23926875" width="0.1524" layer="1"/>
<wire x1="10.41860625" y1="23.23926875" x2="10.41860625" y2="22.3213875" width="0.1524" layer="1"/>
<wire x1="10.41860625" y1="22.3213875" x2="9.59721875" y2="21.5" width="0.1524" layer="1"/>
<wire x1="9.59721875" y1="21.5" x2="5.54" y2="21.5" width="0.1524" layer="1"/>
<wire x1="5.54" y1="21.5" x2="5.04" y2="21" width="0.1524" layer="1"/>
<wire x1="5.04" y1="21" x2="5.04" y2="8.5" width="0.1524" layer="1"/>
<wire x1="5.04" y1="8.5" x2="6.54" y2="7" width="0.1524" layer="1"/>
<wire x1="6.54" y1="7" x2="7.04" y2="7" width="0.1524" layer="1"/>
<wire x1="7.04" y1="7" x2="7.366428125" y2="6.673571875" width="0.1524" layer="1"/>
<wire x1="7.366428125" y1="6.673571875" x2="7.366428125" y2="5.660996875" width="0.1524" layer="1"/>
</signal>
<signal name="TRX">
<contactref element="J1" pad="3"/>
<contactref element="U1" pad="12"/>
<wire x1="10.1796125" y1="24.56815625" x2="10.313525" y2="24.70206875" width="0.1524" layer="1"/>
<wire x1="9.974109375" y1="23.444771875" x2="10.1796125" y2="23.650275" width="0.1524" layer="1"/>
<wire x1="10.1796125" y1="23.650275" x2="10.1796125" y2="24.56815625" width="0.1524" layer="1"/>
<wire x1="10.313525" y1="24.70206875" x2="12.33793125" y2="24.70206875" width="0.1524" layer="1"/>
<wire x1="12.33793125" y1="24.70206875" x2="14.54" y2="22.5" width="0.1524" layer="1"/>
<wire x1="14.54" y1="22.5" x2="14.54" y2="9" width="0.1524" layer="1"/>
<wire x1="14.54" y1="9" x2="12.54" y2="7" width="0.1524" layer="1"/>
<wire x1="12.54" y1="7" x2="9.54" y2="7" width="0.1524" layer="1"/>
<wire x1="9.54" y1="7" x2="8.616428125" y2="6.076428125" width="0.1524" layer="1"/>
<wire x1="8.616428125" y1="6.076428125" x2="8.616428125" y2="5.660996875" width="0.1524" layer="1"/>
</signal>
<signal name="RAG">
<contactref element="U$1" pad="P$2"/>
<contactref element="RAG" pad="1"/>
<polygon width="0.1524" layer="1">
<vertex x="11.43" y="49.53"/>
<vertex x="11.43" y="41.275"/>
<vertex x="8.89" y="41.275"/>
<vertex x="8.89" y="30.48"/>
<vertex x="19.05" y="30.48"/>
<vertex x="19.05" y="49.53"/>
</polygon>
</signal>
<signal name="RAP">
<contactref element="U$1" pad="P$1"/>
<contactref element="RAP" pad="1"/>
<polygon width="0.1524" layer="16">
<vertex x="11.43" y="49.53"/>
<vertex x="11.43" y="41.275"/>
<vertex x="8.89" y="41.275"/>
<vertex x="8.89" y="30.48"/>
<vertex x="19.05" y="30.48"/>
<vertex x="19.05" y="49.53"/>
</polygon>
</signal>
</signals>
<mfgpreviewcolors>
<mfgpreviewcolor name="soldermaskcolor" color="0xC8008000"/>
<mfgpreviewcolor name="silkscreencolor" color="0xFFFEFEFE"/>
<mfgpreviewcolor name="backgroundcolor" color="0xFF282828"/>
<mfgpreviewcolor name="coppercolor" color="0xFFFFBF00"/>
<mfgpreviewcolor name="substratecolor" color="0xFF786E46"/>
</mfgpreviewcolors>
</board>
</drawing>
<compatibility>
<note version="8.2" severity="warning">
Since Version 8.2, EAGLE supports online libraries. The ids
of those online libraries will not be understood (or retained)
with this version.
</note>
<note version="8.3" severity="warning">
Since Version 8.3, EAGLE supports URNs for individual library
assets (packages, symbols, and devices). The URNs of those assets
will not be understood (or retained) with this version.
</note>
<note version="8.3" severity="warning">
Since Version 8.3, EAGLE supports the association of 3D packages
with devices in libraries, schematics, and board files. Those 3D
packages will not be understood (or retained) with this version.
</note>
</compatibility>
</eagle>
